<?xml version="1.0" encoding="UTF-8" standalone="no"?>
<!DOCTYPE svg PUBLIC "-//W3C//DTD SVG 1.1//EN"
 "http://www.w3.org/Graphics/SVG/1.1/DTD/svg11.dtd">
<!-- Generated by graphviz version 2.47.0 (20210316.0004)
 -->
<!-- Pages: 1 -->
<svg width="131pt" height="131pt"
 viewBox="0.00 0.00 130.80 130.80" xmlns="http://www.w3.org/2000/svg" xmlns:xlink="http://www.w3.org/1999/xlink">
<g id="graph0" class="graph" transform="scale(1 1) rotate(0) translate(4 126.8)">
<polygon fill="white" stroke="transparent" points="-4,4 -4,-126.8 126.8,-126.8 126.8,4 -4,4"/>
<!-- 0 -->
<g id="node1" class="node">
<title>0</title>
<ellipse fill="lightblue" stroke="black" cx="111.8" cy="-61.4" rx="11" ry="11"/>
<text text-anchor="middle" x="111.8" y="-57.7" font-family="Times New Roman,serif" font-size="14.00">0</text>
</g>
<!-- 5 -->
<g id="node6" class="node">
<title>5</title>
<ellipse fill="lemonchiffon" stroke="black" cx="25.76" cy="-25.76" rx="11" ry="11"/>
<text text-anchor="middle" x="25.76" y="-22.06" font-family="Times New Roman,serif" font-size="14.00">5</text>
</g>
<!-- 0&#45;&#45;5 -->
<g id="edge1" class="edge">
<title>0&#45;&#45;5</title>
<path fill="none" stroke="black" d="M101.59,-57.17C85.03,-50.31 52.51,-36.84 35.96,-29.98"/>
</g>
<!-- 6 -->
<g id="node7" class="node">
<title>6</title>
<ellipse fill="#ffb5c5" stroke="black" cx="97.04" cy="-25.76" rx="11" ry="11"/>
<text text-anchor="middle" x="97.04" y="-22.06" font-family="Times New Roman,serif" font-size="14.00">6</text>
</g>
<!-- 0&#45;&#45;6 -->
<g id="edge2" class="edge">
<title>0&#45;&#45;6</title>
<path fill="none" stroke="black" d="M107.45,-50.9C105.55,-46.3 103.31,-40.91 101.41,-36.31"/>
</g>
<!-- 7 -->
<g id="node8" class="node">
<title>7</title>
<ellipse fill="lightgreen" stroke="black" cx="97.04" cy="-97.04" rx="11" ry="11"/>
<text text-anchor="middle" x="97.04" y="-93.34" font-family="Times New Roman,serif" font-size="14.00">7</text>
</g>
<!-- 0&#45;&#45;7 -->
<g id="edge3" class="edge">
<title>0&#45;&#45;7</title>
<path fill="none" stroke="black" d="M107.45,-71.9C105.55,-76.5 103.31,-81.89 101.41,-86.49"/>
</g>
<!-- 1 -->
<g id="node2" class="node">
<title>1</title>
<ellipse fill="lemonchiffon" stroke="black" cx="61.4" cy="-111.8" rx="11" ry="11"/>
<text text-anchor="middle" x="61.4" y="-108.1" font-family="Times New Roman,serif" font-size="14.00">1</text>
</g>
<!-- 4 -->
<g id="node5" class="node">
<title>4</title>
<ellipse fill="lightblue" stroke="black" cx="25.76" cy="-97.04" rx="11" ry="11"/>
<text text-anchor="middle" x="25.76" y="-93.34" font-family="Times New Roman,serif" font-size="14.00">4</text>
</g>
<!-- 1&#45;&#45;4 -->
<g id="edge4" class="edge">
<title>1&#45;&#45;4</title>
<path fill="none" stroke="black" d="M50.9,-107.45C46.3,-105.55 40.91,-103.31 36.31,-101.41"/>
</g>
<!-- 1&#45;&#45;6 -->
<g id="edge5" class="edge">
<title>1&#45;&#45;6</title>
<path fill="none" stroke="black" d="M65.63,-101.59C72.49,-85.03 85.96,-52.51 92.82,-35.96"/>
</g>
<!-- 1&#45;&#45;7 -->
<g id="edge6" class="edge">
<title>1&#45;&#45;7</title>
<path fill="none" stroke="black" d="M71.9,-107.45C76.5,-105.55 81.89,-103.31 86.49,-101.41"/>
</g>
<!-- 2 -->
<g id="node3" class="node">
<title>2</title>
<ellipse fill="#ffb5c5" stroke="black" cx="11" cy="-61.4" rx="11" ry="11"/>
<text text-anchor="middle" x="11" y="-57.7" font-family="Times New Roman,serif" font-size="14.00">2</text>
</g>
<!-- 2&#45;&#45;4 -->
<g id="edge7" class="edge">
<title>2&#45;&#45;4</title>
<path fill="none" stroke="black" d="M15.35,-71.9C17.25,-76.5 19.49,-81.89 21.39,-86.49"/>
</g>
<!-- 2&#45;&#45;5 -->
<g id="edge8" class="edge">
<title>2&#45;&#45;5</title>
<path fill="none" stroke="black" d="M15.35,-50.9C17.25,-46.3 19.49,-40.91 21.39,-36.31"/>
</g>
<!-- 2&#45;&#45;7 -->
<g id="edge9" class="edge">
<title>2&#45;&#45;7</title>
<path fill="none" stroke="black" d="M21.21,-65.63C37.77,-72.49 70.29,-85.96 86.84,-92.82"/>
</g>
<!-- 3 -->
<g id="node4" class="node">
<title>3</title>
<ellipse fill="lightgreen" stroke="black" cx="61.4" cy="-11" rx="11" ry="11"/>
<text text-anchor="middle" x="61.4" y="-7.3" font-family="Times New Roman,serif" font-size="14.00">3</text>
</g>
<!-- 3&#45;&#45;4 -->
<g id="edge10" class="edge">
<title>3&#45;&#45;4</title>
<path fill="none" stroke="black" d="M57.17,-21.21C50.31,-37.77 36.84,-70.29 29.98,-86.84"/>
</g>
<!-- 3&#45;&#45;5 -->
<g id="edge11" class="edge">
<title>3&#45;&#45;5</title>
<path fill="none" stroke="black" d="M50.9,-15.35C46.3,-17.25 40.91,-19.49 36.31,-21.39"/>
</g>
<!-- 3&#45;&#45;6 -->
<g id="edge12" class="edge">
<title>3&#45;&#45;6</title>
<path fill="none" stroke="black" d="M71.9,-15.35C76.5,-17.25 81.89,-19.49 86.49,-21.39"/>
</g>
</g>
</svg>
