[LabApp | INFO] Loading the validate_assignment nbgrader serverextension
[LabApp | INFO] Serving notebooks from local directory: /Users/sebastien/Documents/15_Git/iremi
[LabApp | INFO] The Jupyter Notebook is running at:
[LabApp | INFO] http://localhost:8888/?token=d815ecd8cca92a536ba417f2a83ea8de0d1c365c11c1d900
[LabApp | INFO] Use Control-C to stop this server and shut down all kernels (twice to skip confirmation).
[LabApp | CRITICAL] 
    
    To access the notebook, open this file in a browser:
        file:///Users/sebastien/Library/Jupyter/runtime/nbserver-23448-open.html
    Or copy and paste one of these URLs:
        http://localhost:8888/?token=d815ecd8cca92a536ba417f2a83ea8de0d1c365c11c1d900
[LabApp | INFO] Node v12.6.0
    
[LabApp | INFO] Build is up to date
[LabApp | WARNING] 404 GET /api/contents/15_Git/iremi/Graphe?1629740770805 (::1): No such file or directory: 15_Git/iremi/Graphe
[LabApp | WARNING] No such file or directory: 15_Git/iremi/Graphe
[LabApp | WARNING] 404 GET /api/contents/15_Git/iremi/Graphe?1629740770805 (::1) 1.82ms referer=http://localhost:8888/lab
[LabApp | WARNING] 404 GET /api/contents/15_Git/iremi/Graphe/Untitled.ipynb?content=0&1629740770806 (::1): No such file or directory: 15_Git/iremi/Graphe/Untitled.ipynb
[LabApp | WARNING] No such file or directory: 15_Git/iremi/Graphe/Untitled.ipynb
[LabApp | WARNING] 404 GET /api/contents/15_Git/iremi/Graphe/Untitled.ipynb?content=0&1629740770806 (::1) 1.53ms referer=http://localhost:8888/lab
[LabApp | WARNING] Notebook Graphe/coloration.ipynb is not trusted
[LabApp | INFO] Kernel started: 68b18775-5b5b-4219-8788-7f19e85744c4
[LabApp | INFO] Adapting to protocol v5.1 for kernel 68b18775-5b5b-4219-8788-7f19e85744c4
[LabApp | INFO] Adapting to protocol v5.1 for kernel 68b18775-5b5b-4219-8788-7f19e85744c4
[LabApp | INFO] Starting buffering for 68b18775-5b5b-4219-8788-7f19e85744c4:afc77163-87b2-4098-92af-dfa8b06a40c4
[LabApp | INFO] interrupted
[LabApp | INFO] interrupted
[LabApp | CRITICAL] Shutdown confirmed
[LabApp | INFO] Shutting down 1 kernel
[LabApp | INFO] Kernel shutdown: 68b18775-5b5b-4219-8788-7f19e85744c4
