<?xml version="1.0" encoding="UTF-8" standalone="no"?>
<!DOCTYPE svg PUBLIC "-//W3C//DTD SVG 1.1//EN"
 "http://www.w3.org/Graphics/SVG/1.1/DTD/svg11.dtd">
<!-- Generated by graphviz version 2.47.0 (20210316.0004)
 -->
<!-- Pages: 1 -->
<svg width="246pt" height="102pt"
 viewBox="0.00 0.00 246.00 102.00" xmlns="http://www.w3.org/2000/svg" xmlns:xlink="http://www.w3.org/1999/xlink">
<g id="graph0" class="graph" transform="scale(1 1) rotate(0) translate(4 98)">
<polygon fill="white" stroke="transparent" points="-4,4 -4,-98 242,-98 242,4 -4,4"/>
<!-- 0 -->
<g id="node1" class="node">
<title>0</title>
<ellipse fill="none" stroke="black" cx="11" cy="-83" rx="11" ry="11"/>
<text text-anchor="middle" x="11" y="-79.3" font-family="Times New Roman,serif" font-size="14.00">0</text>
</g>
<!-- 2 -->
<g id="node3" class="node">
<title>2</title>
<ellipse fill="none" stroke="black" cx="83" cy="-83" rx="11" ry="11"/>
<text text-anchor="middle" x="83" y="-79.3" font-family="Times New Roman,serif" font-size="14.00">2</text>
</g>
<!-- 0&#45;&gt;2 -->
<g id="edge1" class="edge">
<title>0&#45;&gt;2</title>
<path fill="none" stroke="black" d="M22.25,-83C33.81,-83 51.96,-83 65.41,-83"/>
<polygon fill="black" stroke="black" points="65.59,-85.1 71.59,-83 65.59,-80.9 65.59,-85.1"/>
</g>
<!-- 1 -->
<g id="node2" class="node">
<title>1</title>
<ellipse fill="none" stroke="black" cx="11" cy="-11" rx="11" ry="11"/>
<text text-anchor="middle" x="11" y="-7.3" font-family="Times New Roman,serif" font-size="14.00">1</text>
</g>
<!-- 3 -->
<g id="node4" class="node">
<title>3</title>
<ellipse fill="none" stroke="black" cx="83" cy="-11" rx="11" ry="11"/>
<text text-anchor="middle" x="83" y="-7.3" font-family="Times New Roman,serif" font-size="14.00">3</text>
</g>
<!-- 1&#45;&gt;3 -->
<g id="edge2" class="edge">
<title>1&#45;&gt;3</title>
<path fill="none" stroke="black" d="M22.25,-11C33.81,-11 51.96,-11 65.41,-11"/>
<polygon fill="black" stroke="black" points="65.59,-13.1 71.59,-11 65.59,-8.9 65.59,-13.1"/>
</g>
<!-- 2&#45;&gt;3 -->
<g id="edge3" class="edge">
<title>2&#45;&gt;3</title>
<path fill="none" stroke="black" d="M83,-71.75C83,-60.19 83,-42.04 83,-28.59"/>
<polygon fill="black" stroke="black" points="85.1,-28.41 83,-22.41 80.9,-28.41 85.1,-28.41"/>
</g>
<!-- 3&#45;&gt;3 -->
<g id="edge4" class="edge">
<title>3&#45;&gt;3</title>
<path fill="none" stroke="black" d="M92.81,-16.46C102.01,-19.29 112,-17.47 112,-11 112,-5.95 105.9,-3.73 98.85,-4.35"/>
<polygon fill="black" stroke="black" points="98.29,-2.32 92.81,-5.54 99.1,-6.44 98.29,-2.32"/>
</g>
<!-- 4 -->
<g id="node5" class="node">
<title>4</title>
<ellipse fill="none" stroke="black" cx="155" cy="-83" rx="11" ry="11"/>
<text text-anchor="middle" x="155" y="-79.3" font-family="Times New Roman,serif" font-size="14.00">4</text>
</g>
<!-- 7 -->
<g id="node8" class="node">
<title>7</title>
<ellipse fill="none" stroke="black" cx="227" cy="-11" rx="11" ry="11"/>
<text text-anchor="middle" x="227" y="-7.3" font-family="Times New Roman,serif" font-size="14.00">7</text>
</g>
<!-- 4&#45;&gt;7 -->
<g id="edge5" class="edge">
<title>4&#45;&gt;7</title>
<path fill="none" stroke="black" d="M162.98,-75.02C175.48,-62.52 199.78,-38.22 214.58,-23.42"/>
<polygon fill="black" stroke="black" points="216.45,-24.52 219.2,-18.8 213.48,-21.55 216.45,-24.52"/>
</g>
<!-- 5 -->
<g id="node6" class="node">
<title>5</title>
<ellipse fill="none" stroke="black" cx="155" cy="-11" rx="11" ry="11"/>
<text text-anchor="middle" x="155" y="-7.3" font-family="Times New Roman,serif" font-size="14.00">5</text>
</g>
<!-- 5&#45;&gt;5 -->
<g id="edge6" class="edge">
<title>5&#45;&gt;5</title>
<path fill="none" stroke="black" d="M164.81,-16.46C174.01,-19.29 184,-17.47 184,-11 184,-5.95 177.9,-3.73 170.85,-4.35"/>
<polygon fill="black" stroke="black" points="170.29,-2.32 164.81,-5.54 171.1,-6.44 170.29,-2.32"/>
</g>
<!-- 6 -->
<g id="node7" class="node">
<title>6</title>
<ellipse fill="none" stroke="black" cx="227" cy="-83" rx="11" ry="11"/>
<text text-anchor="middle" x="227" y="-79.3" font-family="Times New Roman,serif" font-size="14.00">6</text>
</g>
<!-- 6&#45;&gt;7 -->
<g id="edge7" class="edge">
<title>6&#45;&gt;7</title>
<path fill="none" stroke="black" d="M227,-71.75C227,-60.19 227,-42.04 227,-28.59"/>
<polygon fill="black" stroke="black" points="229.1,-28.41 227,-22.41 224.9,-28.41 229.1,-28.41"/>
</g>
<!-- 7&#45;&gt;5 -->
<g id="edge8" class="edge">
<title>7&#45;&gt;5</title>
<path fill="none" stroke="black" d="M215.75,-11C204.19,-11 186.04,-11 172.59,-11"/>
<polygon fill="black" stroke="black" points="172.41,-8.9 166.41,-11 172.41,-13.1 172.41,-8.9"/>
</g>
</g>
</svg>
