<?xml version="1.0" encoding="UTF-8" standalone="no"?>
<!DOCTYPE svg PUBLIC "-//W3C//DTD SVG 1.1//EN"
 "http://www.w3.org/Graphics/SVG/1.1/DTD/svg11.dtd">
<!-- Generated by graphviz version 2.47.0 (20210316.0004)
 -->
<!-- Pages: 1 -->
<svg width="471pt" height="181pt"
 viewBox="0.00 0.00 471.00 181.20" xmlns="http://www.w3.org/2000/svg" xmlns:xlink="http://www.w3.org/1999/xlink">
<g id="graph0" class="graph" transform="scale(1 1) rotate(0) translate(4 177.2)">
<polygon fill="white" stroke="transparent" points="-4,4 -4,-177.2 467,-177.2 467,4 -4,4"/>
<!-- 0 -->
<g id="node1" class="node">
<title>0</title>
<ellipse fill="none" stroke="black" cx="452" cy="-61.4" rx="11" ry="11"/>
<text text-anchor="middle" x="452" y="-57.7" font-family="Times New Roman,serif" font-size="14.00">0</text>
</g>
<!-- 6 -->
<g id="node7" class="node">
<title>6</title>
<ellipse fill="none" stroke="black" cx="452" cy="-111.8" rx="11" ry="11"/>
<text text-anchor="middle" x="452" y="-108.1" font-family="Times New Roman,serif" font-size="14.00">6</text>
</g>
<!-- 0&#45;&gt;6 -->
<g id="edge1" class="edge">
<title>0&#45;&gt;6</title>
<path fill="none" stroke="black" d="M452,-72.59C452,-78.98 452,-87.14 452,-94.36"/>
<polygon fill="black" stroke="black" points="449.9,-94.65 452,-100.65 454.1,-94.65 449.9,-94.65"/>
</g>
<!-- 1 -->
<g id="node2" class="node">
<title>1</title>
<ellipse fill="none" stroke="black" cx="86.6" cy="-111.8" rx="11" ry="11"/>
<text text-anchor="middle" x="86.6" y="-108.1" font-family="Times New Roman,serif" font-size="14.00">1</text>
</g>
<!-- 9 -->
<g id="node10" class="node">
<title>9</title>
<ellipse fill="none" stroke="black" cx="48.8" cy="-162.2" rx="11" ry="11"/>
<text text-anchor="middle" x="48.8" y="-158.5" font-family="Times New Roman,serif" font-size="14.00">9</text>
</g>
<!-- 1&#45;&gt;9 -->
<g id="edge2" class="edge">
<title>1&#45;&gt;9</title>
<path fill="none" stroke="black" d="M79.67,-121.04C73.95,-128.67 65.75,-139.6 59.23,-148.29"/>
<polygon fill="black" stroke="black" points="57.36,-147.29 55.44,-153.35 60.72,-149.81 57.36,-147.29"/>
</g>
<!-- 2 -->
<g id="node3" class="node">
<title>2</title>
<ellipse fill="none" stroke="black" cx="225.2" cy="-111.8" rx="11" ry="11"/>
<text text-anchor="middle" x="225.2" y="-108.1" font-family="Times New Roman,serif" font-size="14.00">2</text>
</g>
<!-- 3 -->
<g id="node4" class="node">
<title>3</title>
<ellipse fill="none" stroke="black" cx="200" cy="-162.2" rx="11" ry="11"/>
<text text-anchor="middle" x="200" y="-158.5" font-family="Times New Roman,serif" font-size="14.00">3</text>
</g>
<!-- 2&#45;&gt;3 -->
<g id="edge3" class="edge">
<title>2&#45;&gt;3</title>
<path fill="none" stroke="black" d="M220.1,-122C216.57,-129.06 211.81,-138.59 207.8,-146.6"/>
<polygon fill="black" stroke="black" points="205.73,-146.05 204.92,-152.36 209.48,-147.93 205.73,-146.05"/>
</g>
<!-- 3&#45;&gt;3 -->
<g id="edge4" class="edge">
<title>3&#45;&gt;3</title>
<path fill="none" stroke="black" d="M209.81,-167.66C219.01,-170.49 229,-168.67 229,-162.2 229,-157.15 222.9,-154.93 215.85,-155.55"/>
<polygon fill="black" stroke="black" points="215.29,-153.52 209.81,-156.74 216.1,-157.64 215.29,-153.52"/>
</g>
<!-- 4 -->
<g id="node5" class="node">
<title>4</title>
<ellipse fill="none" stroke="black" cx="174.8" cy="-111.8" rx="11" ry="11"/>
<text text-anchor="middle" x="174.8" y="-108.1" font-family="Times New Roman,serif" font-size="14.00">4</text>
</g>
<!-- 4&#45;&gt;3 -->
<g id="edge5" class="edge">
<title>4&#45;&gt;3</title>
<path fill="none" stroke="black" d="M179.9,-122C183.43,-129.06 188.19,-138.59 192.2,-146.6"/>
<polygon fill="black" stroke="black" points="190.52,-147.93 195.08,-152.36 194.27,-146.05 190.52,-147.93"/>
</g>
<!-- 5 -->
<g id="node6" class="node">
<title>5</title>
<ellipse fill="none" stroke="black" cx="426.8" cy="-162.2" rx="11" ry="11"/>
<text text-anchor="middle" x="426.8" y="-158.5" font-family="Times New Roman,serif" font-size="14.00">5</text>
</g>
<!-- 5&#45;&gt;5 -->
<g id="edge6" class="edge">
<title>5&#45;&gt;5</title>
<path fill="none" stroke="black" d="M436.61,-167.66C445.81,-170.49 455.8,-168.67 455.8,-162.2 455.8,-157.15 449.7,-154.93 442.65,-155.55"/>
<polygon fill="black" stroke="black" points="442.09,-153.52 436.61,-156.74 442.9,-157.64 442.09,-153.52"/>
</g>
<!-- 6&#45;&gt;5 -->
<g id="edge7" class="edge">
<title>6&#45;&gt;5</title>
<path fill="none" stroke="black" d="M446.9,-122C443.37,-129.06 438.61,-138.59 434.6,-146.6"/>
<polygon fill="black" stroke="black" points="432.53,-146.05 431.72,-152.36 436.28,-147.93 432.53,-146.05"/>
</g>
<!-- 7 -->
<g id="node8" class="node">
<title>7</title>
<ellipse fill="none" stroke="black" cx="401.6" cy="-111.8" rx="11" ry="11"/>
<text text-anchor="middle" x="401.6" y="-108.1" font-family="Times New Roman,serif" font-size="14.00">7</text>
</g>
<!-- 7&#45;&gt;5 -->
<g id="edge8" class="edge">
<title>7&#45;&gt;5</title>
<path fill="none" stroke="black" d="M406.7,-122C410.23,-129.06 414.99,-138.59 419,-146.6"/>
<polygon fill="black" stroke="black" points="417.32,-147.93 421.88,-152.36 421.07,-146.05 417.32,-147.93"/>
</g>
<!-- 8 -->
<g id="node9" class="node">
<title>8</title>
<ellipse fill="none" stroke="black" cx="67.95" cy="-61.4" rx="11" ry="11"/>
<text text-anchor="middle" x="67.95" y="-57.7" font-family="Times New Roman,serif" font-size="14.00">8</text>
</g>
<!-- 8&#45;&gt;1 -->
<g id="edge9" class="edge">
<title>8&#45;&gt;1</title>
<path fill="none" stroke="black" d="M71.91,-72.09C74.41,-78.86 77.7,-87.75 80.53,-95.41"/>
<polygon fill="black" stroke="black" points="78.73,-96.57 82.78,-101.47 82.67,-95.12 78.73,-96.57"/>
</g>
<!-- 9&#45;&gt;9 -->
<g id="edge10" class="edge">
<title>9&#45;&gt;9</title>
<path fill="none" stroke="black" d="M58.61,-167.66C67.81,-170.49 77.8,-168.67 77.8,-162.2 77.8,-157.15 71.7,-154.93 64.65,-155.55"/>
<polygon fill="black" stroke="black" points="64.09,-153.52 58.61,-156.74 64.9,-157.64 64.09,-153.52"/>
</g>
<!-- 10 -->
<g id="node11" class="node">
<title>10</title>
<ellipse fill="none" stroke="black" cx="326" cy="-162.2" rx="11" ry="11"/>
<text text-anchor="middle" x="326" y="-158.5" font-family="Times New Roman,serif" font-size="14.00">10</text>
</g>
<!-- 10&#45;&gt;10 -->
<g id="edge11" class="edge">
<title>10&#45;&gt;10</title>
<path fill="none" stroke="black" d="M335.81,-167.66C345.01,-170.49 355,-168.67 355,-162.2 355,-157.15 348.9,-154.93 341.85,-155.55"/>
<polygon fill="black" stroke="black" points="341.29,-153.52 335.81,-156.74 342.1,-157.64 341.29,-153.52"/>
</g>
<!-- 11 -->
<g id="node12" class="node">
<title>11</title>
<ellipse fill="none" stroke="black" cx="99.2" cy="-61.4" rx="11" ry="11"/>
<text text-anchor="middle" x="99.2" y="-57.7" font-family="Times New Roman,serif" font-size="14.00">11</text>
</g>
<!-- 11&#45;&gt;1 -->
<g id="edge12" class="edge">
<title>11&#45;&gt;1</title>
<path fill="none" stroke="black" d="M96.53,-72.09C94.86,-78.77 92.67,-87.52 90.77,-95.1"/>
<polygon fill="black" stroke="black" points="88.69,-94.8 89.27,-101.13 92.76,-95.82 88.69,-94.8"/>
</g>
<!-- 12 -->
<g id="node13" class="node">
<title>12</title>
<ellipse fill="none" stroke="black" cx="174.8" cy="-61.4" rx="11" ry="11"/>
<text text-anchor="middle" x="174.8" y="-57.7" font-family="Times New Roman,serif" font-size="14.00">12</text>
</g>
<!-- 12&#45;&gt;4 -->
<g id="edge13" class="edge">
<title>12&#45;&gt;4</title>
<path fill="none" stroke="black" d="M174.8,-72.59C174.8,-78.98 174.8,-87.14 174.8,-94.36"/>
<polygon fill="black" stroke="black" points="172.7,-94.65 174.8,-100.65 176.9,-94.65 172.7,-94.65"/>
</g>
<!-- 13 -->
<g id="node14" class="node">
<title>13</title>
<ellipse fill="none" stroke="black" cx="48.8" cy="-111.8" rx="11" ry="11"/>
<text text-anchor="middle" x="48.8" y="-108.1" font-family="Times New Roman,serif" font-size="14.00">13</text>
</g>
<!-- 13&#45;&gt;9 -->
<g id="edge14" class="edge">
<title>13&#45;&gt;9</title>
<path fill="none" stroke="black" d="M48.8,-122.99C48.8,-129.38 48.8,-137.54 48.8,-144.76"/>
<polygon fill="black" stroke="black" points="46.7,-145.05 48.8,-151.05 50.9,-145.05 46.7,-145.05"/>
</g>
<!-- 14 -->
<g id="node15" class="node">
<title>14</title>
<ellipse fill="none" stroke="black" cx="99.2" cy="-11" rx="11" ry="11"/>
<text text-anchor="middle" x="99.2" y="-7.3" font-family="Times New Roman,serif" font-size="14.00">14</text>
</g>
<!-- 14&#45;&gt;11 -->
<g id="edge15" class="edge">
<title>14&#45;&gt;11</title>
<path fill="none" stroke="black" d="M99.2,-22.19C99.2,-28.58 99.2,-36.74 99.2,-43.96"/>
<polygon fill="black" stroke="black" points="97.1,-44.25 99.2,-50.25 101.3,-44.25 97.1,-44.25"/>
</g>
<!-- 15 -->
<g id="node16" class="node">
<title>15</title>
<ellipse fill="none" stroke="black" cx="11" cy="-111.8" rx="11" ry="11"/>
<text text-anchor="middle" x="11" y="-108.1" font-family="Times New Roman,serif" font-size="14.00">15</text>
</g>
<!-- 15&#45;&gt;9 -->
<g id="edge16" class="edge">
<title>15&#45;&gt;9</title>
<path fill="none" stroke="black" d="M17.93,-121.04C23.65,-128.67 31.85,-139.6 38.37,-148.29"/>
<polygon fill="black" stroke="black" points="36.88,-149.81 42.16,-153.35 40.24,-147.29 36.88,-149.81"/>
</g>
</g>
</svg>
