<?xml version="1.0" encoding="UTF-8" standalone="no"?>
<!DOCTYPE svg PUBLIC "-//W3C//DTD SVG 1.1//EN"
 "http://www.w3.org/Graphics/SVG/1.1/DTD/svg11.dtd">
<!-- Generated by graphviz version 2.47.0 (20210316.0004)
 -->
<!-- Pages: 1 -->
<svg width="521pt" height="131pt"
 viewBox="0.00 0.00 521.40 130.80" xmlns="http://www.w3.org/2000/svg" xmlns:xlink="http://www.w3.org/1999/xlink">
<g id="graph0" class="graph" transform="scale(1 1) rotate(0) translate(4 126.8)">
<polygon fill="white" stroke="transparent" points="-4,4 -4,-126.8 517.4,-126.8 517.4,4 -4,4"/>
<!-- 0 -->
<g id="node1" class="node">
<title>0</title>
<ellipse fill="none" stroke="black" cx="502.4" cy="-11" rx="11" ry="11"/>
<text text-anchor="middle" x="502.4" y="-7.3" font-family="Times New Roman,serif" font-size="14.00">0</text>
</g>
<!-- 6 -->
<g id="node7" class="node">
<title>6</title>
<ellipse fill="none" stroke="black" cx="502.4" cy="-61.4" rx="11" ry="11"/>
<text text-anchor="middle" x="502.4" y="-57.7" font-family="Times New Roman,serif" font-size="14.00">6</text>
</g>
<!-- 0&#45;&gt;6 -->
<g id="edge1" class="edge">
<title>0&#45;&gt;6</title>
<path fill="none" stroke="black" d="M502.4,-22.19C502.4,-28.58 502.4,-36.74 502.4,-43.96"/>
<polygon fill="black" stroke="black" points="500.3,-44.25 502.4,-50.25 504.5,-44.25 500.3,-44.25"/>
</g>
<!-- 1 -->
<g id="node2" class="node">
<title>1</title>
<ellipse fill="none" stroke="black" cx="86.6" cy="-61.4" rx="11" ry="11"/>
<text text-anchor="middle" x="86.6" y="-57.7" font-family="Times New Roman,serif" font-size="14.00">1</text>
</g>
<!-- 9 -->
<g id="node10" class="node">
<title>9</title>
<ellipse fill="none" stroke="black" cx="48.8" cy="-111.8" rx="11" ry="11"/>
<text text-anchor="middle" x="48.8" y="-108.1" font-family="Times New Roman,serif" font-size="14.00">9</text>
</g>
<!-- 1&#45;&gt;9 -->
<g id="edge2" class="edge">
<title>1&#45;&gt;9</title>
<path fill="none" stroke="black" d="M79.67,-70.64C73.95,-78.27 65.75,-89.2 59.23,-97.89"/>
<polygon fill="black" stroke="black" points="57.36,-96.89 55.44,-102.95 60.72,-99.41 57.36,-96.89"/>
</g>
<!-- 2 -->
<g id="node3" class="node">
<title>2</title>
<ellipse fill="none" stroke="black" cx="275.6" cy="-61.4" rx="11" ry="11"/>
<text text-anchor="middle" x="275.6" y="-57.7" font-family="Times New Roman,serif" font-size="14.00">2</text>
</g>
<!-- 3 -->
<g id="node4" class="node">
<title>3</title>
<ellipse fill="none" stroke="black" cx="250.4" cy="-111.8" rx="11" ry="11"/>
<text text-anchor="middle" x="250.4" y="-108.1" font-family="Times New Roman,serif" font-size="14.00">3</text>
</g>
<!-- 2&#45;&gt;3 -->
<g id="edge3" class="edge">
<title>2&#45;&gt;3</title>
<path fill="none" stroke="black" d="M270.5,-71.6C266.97,-78.66 262.21,-88.19 258.2,-96.2"/>
<polygon fill="black" stroke="black" points="256.13,-95.65 255.32,-101.96 259.88,-97.53 256.13,-95.65"/>
</g>
<!-- 3&#45;&gt;3 -->
<g id="edge4" class="edge">
<title>3&#45;&gt;3</title>
<path fill="none" stroke="black" d="M260.21,-117.26C269.41,-120.09 279.4,-118.27 279.4,-111.8 279.4,-106.75 273.3,-104.53 266.25,-105.15"/>
<polygon fill="black" stroke="black" points="265.69,-103.12 260.21,-106.34 266.5,-107.24 265.69,-103.12"/>
</g>
<!-- 4 -->
<g id="node5" class="node">
<title>4</title>
<ellipse fill="none" stroke="black" cx="225.2" cy="-61.4" rx="11" ry="11"/>
<text text-anchor="middle" x="225.2" y="-57.7" font-family="Times New Roman,serif" font-size="14.00">4</text>
</g>
<!-- 4&#45;&gt;3 -->
<g id="edge5" class="edge">
<title>4&#45;&gt;3</title>
<path fill="none" stroke="black" d="M230.3,-71.6C233.83,-78.66 238.59,-88.19 242.6,-96.2"/>
<polygon fill="black" stroke="black" points="240.92,-97.53 245.48,-101.96 244.67,-95.65 240.92,-97.53"/>
</g>
<!-- 5 -->
<g id="node6" class="node">
<title>5</title>
<ellipse fill="none" stroke="black" cx="477.2" cy="-111.8" rx="11" ry="11"/>
<text text-anchor="middle" x="477.2" y="-108.1" font-family="Times New Roman,serif" font-size="14.00">5</text>
</g>
<!-- 5&#45;&gt;5 -->
<g id="edge6" class="edge">
<title>5&#45;&gt;5</title>
<path fill="none" stroke="black" d="M487.01,-117.26C496.21,-120.09 506.2,-118.27 506.2,-111.8 506.2,-106.75 500.1,-104.53 493.05,-105.15"/>
<polygon fill="black" stroke="black" points="492.49,-103.12 487.01,-106.34 493.3,-107.24 492.49,-103.12"/>
</g>
<!-- 6&#45;&gt;5 -->
<g id="edge7" class="edge">
<title>6&#45;&gt;5</title>
<path fill="none" stroke="black" d="M497.3,-71.6C493.77,-78.66 489.01,-88.19 485,-96.2"/>
<polygon fill="black" stroke="black" points="482.93,-95.65 482.12,-101.96 486.68,-97.53 482.93,-95.65"/>
</g>
<!-- 7 -->
<g id="node8" class="node">
<title>7</title>
<ellipse fill="none" stroke="black" cx="452" cy="-61.4" rx="11" ry="11"/>
<text text-anchor="middle" x="452" y="-57.7" font-family="Times New Roman,serif" font-size="14.00">7</text>
</g>
<!-- 7&#45;&gt;5 -->
<g id="edge8" class="edge">
<title>7&#45;&gt;5</title>
<path fill="none" stroke="black" d="M457.1,-71.6C460.63,-78.66 465.39,-88.19 469.4,-96.2"/>
<polygon fill="black" stroke="black" points="467.72,-97.53 472.28,-101.96 471.47,-95.65 467.72,-97.53"/>
</g>
<!-- 8 -->
<g id="node9" class="node">
<title>8</title>
<ellipse fill="none" stroke="black" cx="67.95" cy="-11" rx="11" ry="11"/>
<text text-anchor="middle" x="67.95" y="-7.3" font-family="Times New Roman,serif" font-size="14.00">8</text>
</g>
<!-- 8&#45;&gt;1 -->
<g id="edge9" class="edge">
<title>8&#45;&gt;1</title>
<path fill="none" stroke="black" d="M71.91,-21.69C74.41,-28.46 77.7,-37.35 80.53,-45.01"/>
<polygon fill="black" stroke="black" points="78.73,-46.17 82.78,-51.07 82.67,-44.72 78.73,-46.17"/>
</g>
<!-- 9&#45;&gt;9 -->
<g id="edge10" class="edge">
<title>9&#45;&gt;9</title>
<path fill="none" stroke="black" d="M58.61,-117.26C67.81,-120.09 77.8,-118.27 77.8,-111.8 77.8,-106.75 71.7,-104.53 64.65,-105.15"/>
<polygon fill="black" stroke="black" points="64.09,-103.12 58.61,-106.34 64.9,-107.24 64.09,-103.12"/>
</g>
<!-- 10 -->
<g id="node11" class="node">
<title>10</title>
<ellipse fill="none" stroke="black" cx="376.4" cy="-111.8" rx="11" ry="11"/>
<text text-anchor="middle" x="376.4" y="-108.1" font-family="Times New Roman,serif" font-size="14.00">10</text>
</g>
<!-- 10&#45;&gt;10 -->
<g id="edge11" class="edge">
<title>10&#45;&gt;10</title>
<path fill="none" stroke="black" d="M386.21,-117.26C395.41,-120.09 405.4,-118.27 405.4,-111.8 405.4,-106.75 399.3,-104.53 392.25,-105.15"/>
<polygon fill="black" stroke="black" points="391.69,-103.12 386.21,-106.34 392.5,-107.24 391.69,-103.12"/>
</g>
<!-- 11 -->
<g id="node12" class="node">
<title>11</title>
<ellipse fill="none" stroke="black" cx="124.4" cy="-61.4" rx="11" ry="11"/>
<text text-anchor="middle" x="124.4" y="-57.7" font-family="Times New Roman,serif" font-size="14.00">11</text>
</g>
<!-- 11&#45;&gt;9 -->
<g id="edge12" class="edge">
<title>11&#45;&gt;9</title>
<path fill="none" stroke="black" d="M115.13,-67.58C102.21,-76.2 78.65,-91.9 63.37,-102.09"/>
<polygon fill="black" stroke="black" points="61.97,-100.49 58.15,-105.57 64.3,-103.99 61.97,-100.49"/>
</g>
<!-- 12 -->
<g id="node13" class="node">
<title>12</title>
<ellipse fill="none" stroke="black" cx="225.2" cy="-11" rx="11" ry="11"/>
<text text-anchor="middle" x="225.2" y="-7.3" font-family="Times New Roman,serif" font-size="14.00">12</text>
</g>
<!-- 12&#45;&gt;4 -->
<g id="edge13" class="edge">
<title>12&#45;&gt;4</title>
<path fill="none" stroke="black" d="M225.2,-22.19C225.2,-28.58 225.2,-36.74 225.2,-43.96"/>
<polygon fill="black" stroke="black" points="223.1,-44.25 225.2,-50.25 227.3,-44.25 223.1,-44.25"/>
</g>
<!-- 13 -->
<g id="node14" class="node">
<title>13</title>
<ellipse fill="none" stroke="black" cx="48.8" cy="-61.4" rx="11" ry="11"/>
<text text-anchor="middle" x="48.8" y="-57.7" font-family="Times New Roman,serif" font-size="14.00">13</text>
</g>
<!-- 13&#45;&gt;9 -->
<g id="edge14" class="edge">
<title>13&#45;&gt;9</title>
<path fill="none" stroke="black" d="M48.8,-72.59C48.8,-78.98 48.8,-87.14 48.8,-94.36"/>
<polygon fill="black" stroke="black" points="46.7,-94.65 48.8,-100.65 50.9,-94.65 46.7,-94.65"/>
</g>
<!-- 14 -->
<g id="node15" class="node">
<title>14</title>
<ellipse fill="none" stroke="black" cx="174.8" cy="-61.4" rx="11" ry="11"/>
<text text-anchor="middle" x="174.8" y="-57.7" font-family="Times New Roman,serif" font-size="14.00">14</text>
</g>
<!-- 14&#45;&gt;9 -->
<g id="edge15" class="edge">
<title>14&#45;&gt;9</title>
<path fill="none" stroke="black" d="M164.49,-65.52C142.62,-74.27 91.42,-94.75 65.08,-105.29"/>
<polygon fill="black" stroke="black" points="64.04,-103.44 59.25,-107.62 65.6,-107.34 64.04,-103.44"/>
</g>
<!-- 15 -->
<g id="node16" class="node">
<title>15</title>
<ellipse fill="none" stroke="black" cx="11" cy="-61.4" rx="11" ry="11"/>
<text text-anchor="middle" x="11" y="-57.7" font-family="Times New Roman,serif" font-size="14.00">15</text>
</g>
<!-- 15&#45;&gt;9 -->
<g id="edge16" class="edge">
<title>15&#45;&gt;9</title>
<path fill="none" stroke="black" d="M17.93,-70.64C23.65,-78.27 31.85,-89.2 38.37,-97.89"/>
<polygon fill="black" stroke="black" points="36.88,-99.41 42.16,-102.95 40.24,-96.89 36.88,-99.41"/>
</g>
</g>
</svg>
