<?xml version="1.0" encoding="UTF-8" standalone="no"?>
<!DOCTYPE svg PUBLIC "-//W3C//DTD SVG 1.1//EN"
 "http://www.w3.org/Graphics/SVG/1.1/DTD/svg11.dtd">
<!-- Generated by graphviz version 2.47.0 (20210316.0004)
 -->
<!-- Pages: 1 -->
<svg width="451pt" height="80pt"
 viewBox="0.00 0.00 451.20 80.40" xmlns="http://www.w3.org/2000/svg" xmlns:xlink="http://www.w3.org/1999/xlink">
<g id="graph0" class="graph" transform="scale(1 1) rotate(0) translate(4 76.4)">
<polygon fill="white" stroke="transparent" points="-4,4 -4,-76.4 447.2,-76.4 447.2,4 -4,4"/>
<!-- 0 -->
<g id="node1" class="node">
<title>0</title>
<ellipse fill="none" stroke="black" cx="187.4" cy="-11" rx="11" ry="11"/>
<text text-anchor="middle" x="187.4" y="-7.3" font-family="Times New Roman,serif" font-size="14.00">0</text>
</g>
<!-- 5 -->
<g id="node6" class="node">
<title>5</title>
<ellipse fill="none" stroke="black" cx="212.6" cy="-61.4" rx="11" ry="11"/>
<text text-anchor="middle" x="212.6" y="-57.7" font-family="Times New Roman,serif" font-size="14.00">5</text>
</g>
<!-- 0&#45;&gt;5 -->
<g id="edge1" class="edge">
<title>0&#45;&gt;5</title>
<path fill="none" stroke="black" d="M192.5,-21.2C196.03,-28.26 200.79,-37.79 204.8,-45.8"/>
<polygon fill="black" stroke="black" points="203.12,-47.13 207.68,-51.56 206.87,-45.25 203.12,-47.13"/>
</g>
<!-- 1 -->
<g id="node2" class="node">
<title>1</title>
<ellipse fill="none" stroke="black" cx="11" cy="-11" rx="11" ry="11"/>
<text text-anchor="middle" x="11" y="-7.3" font-family="Times New Roman,serif" font-size="14.00">1</text>
</g>
<!-- 9 -->
<g id="node10" class="node">
<title>9</title>
<ellipse fill="none" stroke="black" cx="74" cy="-61.4" rx="11" ry="11"/>
<text text-anchor="middle" x="74" y="-57.7" font-family="Times New Roman,serif" font-size="14.00">9</text>
</g>
<!-- 1&#45;&gt;9 -->
<g id="edge2" class="edge">
<title>1&#45;&gt;9</title>
<path fill="none" stroke="black" d="M19.76,-18.01C30.29,-26.43 48.09,-40.67 60.41,-50.53"/>
<polygon fill="black" stroke="black" points="59.32,-52.34 65.31,-54.45 61.94,-49.06 59.32,-52.34"/>
</g>
<!-- 2 -->
<g id="node3" class="node">
<title>2</title>
<ellipse fill="none" stroke="black" cx="313.4" cy="-11" rx="11" ry="11"/>
<text text-anchor="middle" x="313.4" y="-7.3" font-family="Times New Roman,serif" font-size="14.00">2</text>
</g>
<!-- 3 -->
<g id="node4" class="node">
<title>3</title>
<ellipse fill="none" stroke="black" cx="338.6" cy="-61.4" rx="11" ry="11"/>
<text text-anchor="middle" x="338.6" y="-57.7" font-family="Times New Roman,serif" font-size="14.00">3</text>
</g>
<!-- 2&#45;&gt;3 -->
<g id="edge3" class="edge">
<title>2&#45;&gt;3</title>
<path fill="none" stroke="black" d="M318.5,-21.2C322.03,-28.26 326.79,-37.79 330.8,-45.8"/>
<polygon fill="black" stroke="black" points="329.12,-47.13 333.68,-51.56 332.87,-45.25 329.12,-47.13"/>
</g>
<!-- 3&#45;&gt;3 -->
<g id="edge4" class="edge">
<title>3&#45;&gt;3</title>
<path fill="none" stroke="black" d="M348.41,-66.86C357.61,-69.69 367.6,-67.87 367.6,-61.4 367.6,-56.35 361.5,-54.13 354.45,-54.75"/>
<polygon fill="black" stroke="black" points="353.89,-52.72 348.41,-55.94 354.7,-56.84 353.89,-52.72"/>
</g>
<!-- 4 -->
<g id="node5" class="node">
<title>4</title>
<ellipse fill="none" stroke="black" cx="338.6" cy="-11" rx="11" ry="11"/>
<text text-anchor="middle" x="338.6" y="-7.3" font-family="Times New Roman,serif" font-size="14.00">4</text>
</g>
<!-- 4&#45;&gt;3 -->
<g id="edge5" class="edge">
<title>4&#45;&gt;3</title>
<path fill="none" stroke="black" d="M338.6,-22.19C338.6,-28.58 338.6,-36.74 338.6,-43.96"/>
<polygon fill="black" stroke="black" points="336.5,-44.25 338.6,-50.25 340.7,-44.25 336.5,-44.25"/>
</g>
<!-- 5&#45;&gt;5 -->
<g id="edge6" class="edge">
<title>5&#45;&gt;5</title>
<path fill="none" stroke="black" d="M222.41,-66.86C231.61,-69.69 241.6,-67.87 241.6,-61.4 241.6,-56.35 235.5,-54.13 228.45,-54.75"/>
<polygon fill="black" stroke="black" points="227.89,-52.72 222.41,-55.94 228.7,-56.84 227.89,-52.72"/>
</g>
<!-- 6 -->
<g id="node7" class="node">
<title>6</title>
<ellipse fill="none" stroke="black" cx="212.6" cy="-11" rx="11" ry="11"/>
<text text-anchor="middle" x="212.6" y="-7.3" font-family="Times New Roman,serif" font-size="14.00">6</text>
</g>
<!-- 6&#45;&gt;5 -->
<g id="edge7" class="edge">
<title>6&#45;&gt;5</title>
<path fill="none" stroke="black" d="M212.6,-22.19C212.6,-28.58 212.6,-36.74 212.6,-43.96"/>
<polygon fill="black" stroke="black" points="210.5,-44.25 212.6,-50.25 214.7,-44.25 210.5,-44.25"/>
</g>
<!-- 7 -->
<g id="node8" class="node">
<title>7</title>
<ellipse fill="none" stroke="black" cx="237.8" cy="-11" rx="11" ry="11"/>
<text text-anchor="middle" x="237.8" y="-7.3" font-family="Times New Roman,serif" font-size="14.00">7</text>
</g>
<!-- 7&#45;&gt;5 -->
<g id="edge8" class="edge">
<title>7&#45;&gt;5</title>
<path fill="none" stroke="black" d="M232.7,-21.2C229.17,-28.26 224.41,-37.79 220.4,-45.8"/>
<polygon fill="black" stroke="black" points="218.33,-45.25 217.52,-51.56 222.08,-47.13 218.33,-45.25"/>
</g>
<!-- 8 -->
<g id="node9" class="node">
<title>8</title>
<ellipse fill="none" stroke="black" cx="36.2" cy="-11" rx="11" ry="11"/>
<text text-anchor="middle" x="36.2" y="-7.3" font-family="Times New Roman,serif" font-size="14.00">8</text>
</g>
<!-- 8&#45;&gt;9 -->
<g id="edge9" class="edge">
<title>8&#45;&gt;9</title>
<path fill="none" stroke="black" d="M43.13,-20.24C48.85,-27.87 57.05,-38.8 63.57,-47.49"/>
<polygon fill="black" stroke="black" points="62.08,-49.01 67.36,-52.55 65.44,-46.49 62.08,-49.01"/>
</g>
<!-- 9&#45;&gt;9 -->
<g id="edge10" class="edge">
<title>9&#45;&gt;9</title>
<path fill="none" stroke="black" d="M83.81,-66.86C93.01,-69.69 103,-67.87 103,-61.4 103,-56.35 96.9,-54.13 89.85,-54.75"/>
<polygon fill="black" stroke="black" points="89.29,-52.72 83.81,-55.94 90.1,-56.84 89.29,-52.72"/>
</g>
<!-- 10 -->
<g id="node11" class="node">
<title>10</title>
<ellipse fill="none" stroke="black" cx="414.2" cy="-61.4" rx="11" ry="11"/>
<text text-anchor="middle" x="414.2" y="-57.7" font-family="Times New Roman,serif" font-size="14.00">10</text>
</g>
<!-- 10&#45;&gt;10 -->
<g id="edge11" class="edge">
<title>10&#45;&gt;10</title>
<path fill="none" stroke="black" d="M424.01,-66.86C433.21,-69.69 443.2,-67.87 443.2,-61.4 443.2,-56.35 437.1,-54.13 430.05,-54.75"/>
<polygon fill="black" stroke="black" points="429.49,-52.72 424.01,-55.94 430.3,-56.84 429.49,-52.72"/>
</g>
<!-- 11 -->
<g id="node12" class="node">
<title>11</title>
<ellipse fill="none" stroke="black" cx="61.4" cy="-11" rx="11" ry="11"/>
<text text-anchor="middle" x="61.4" y="-7.3" font-family="Times New Roman,serif" font-size="14.00">11</text>
</g>
<!-- 11&#45;&gt;9 -->
<g id="edge12" class="edge">
<title>11&#45;&gt;9</title>
<path fill="none" stroke="black" d="M64.07,-21.69C65.74,-28.37 67.93,-37.12 69.83,-44.7"/>
<polygon fill="black" stroke="black" points="67.84,-45.42 71.33,-50.73 71.91,-44.4 67.84,-45.42"/>
</g>
<!-- 12 -->
<g id="node13" class="node">
<title>12</title>
<ellipse fill="none" stroke="black" cx="363.8" cy="-11" rx="11" ry="11"/>
<text text-anchor="middle" x="363.8" y="-7.3" font-family="Times New Roman,serif" font-size="14.00">12</text>
</g>
<!-- 12&#45;&gt;3 -->
<g id="edge13" class="edge">
<title>12&#45;&gt;3</title>
<path fill="none" stroke="black" d="M358.7,-21.2C355.17,-28.26 350.41,-37.79 346.4,-45.8"/>
<polygon fill="black" stroke="black" points="344.33,-45.25 343.52,-51.56 348.08,-47.13 344.33,-45.25"/>
</g>
<!-- 13 -->
<g id="node14" class="node">
<title>13</title>
<ellipse fill="none" stroke="black" cx="86.6" cy="-11" rx="11" ry="11"/>
<text text-anchor="middle" x="86.6" y="-7.3" font-family="Times New Roman,serif" font-size="14.00">13</text>
</g>
<!-- 13&#45;&gt;9 -->
<g id="edge14" class="edge">
<title>13&#45;&gt;9</title>
<path fill="none" stroke="black" d="M83.93,-21.69C82.26,-28.37 80.07,-37.12 78.17,-44.7"/>
<polygon fill="black" stroke="black" points="76.09,-44.4 76.67,-50.73 80.16,-45.42 76.09,-44.4"/>
</g>
<!-- 14 -->
<g id="node15" class="node">
<title>14</title>
<ellipse fill="none" stroke="black" cx="111.8" cy="-11" rx="11" ry="11"/>
<text text-anchor="middle" x="111.8" y="-7.3" font-family="Times New Roman,serif" font-size="14.00">14</text>
</g>
<!-- 14&#45;&gt;9 -->
<g id="edge15" class="edge">
<title>14&#45;&gt;9</title>
<path fill="none" stroke="black" d="M104.87,-20.24C99.15,-27.87 90.95,-38.8 84.43,-47.49"/>
<polygon fill="black" stroke="black" points="82.56,-46.49 80.64,-52.55 85.92,-49.01 82.56,-46.49"/>
</g>
<!-- 15 -->
<g id="node16" class="node">
<title>15</title>
<ellipse fill="none" stroke="black" cx="137" cy="-11" rx="11" ry="11"/>
<text text-anchor="middle" x="137" y="-7.3" font-family="Times New Roman,serif" font-size="14.00">15</text>
</g>
<!-- 15&#45;&gt;9 -->
<g id="edge16" class="edge">
<title>15&#45;&gt;9</title>
<path fill="none" stroke="black" d="M128.24,-18.01C117.71,-26.43 99.91,-40.67 87.59,-50.53"/>
<polygon fill="black" stroke="black" points="86.06,-49.06 82.69,-54.45 88.68,-52.34 86.06,-49.06"/>
</g>
</g>
</svg>
