<?xml version="1.0" encoding="UTF-8" standalone="no"?>
<!DOCTYPE svg PUBLIC "-//W3C//DTD SVG 1.1//EN"
 "http://www.w3.org/Graphics/SVG/1.1/DTD/svg11.dtd">
<!-- Generated by graphviz version 2.50.0 (20211204.2007)
 -->
<!-- Pages: 1 -->
<svg width="354pt" height="160pt"
 viewBox="0.00 0.00 354.00 159.60" xmlns="http://www.w3.org/2000/svg" xmlns:xlink="http://www.w3.org/1999/xlink">
<g id="graph0" class="graph" transform="scale(1 1) rotate(0) translate(4 155.6)">
<polygon fill="white" stroke="transparent" points="-4,4 -4,-155.6 350,-155.6 350,4 -4,4"/>
<!-- 0 -->
<g id="node1" class="node">
<title>0</title>
<ellipse fill="white" stroke="black" cx="11" cy="-97.4" rx="11" ry="11"/>
<text text-anchor="middle" x="11" y="-94.3" font-family="Times,serif" font-size="12.00">0</text>
</g>
<!-- 3 -->
<g id="node4" class="node">
<title>3</title>
<ellipse fill="#eeeee0" stroke="black" cx="75.8" cy="-140.6" rx="11" ry="11"/>
<text text-anchor="middle" x="75.8" y="-137.5" font-family="Times,serif" font-size="12.00">3</text>
</g>
<!-- 0&#45;&gt;3 -->
<g id="edge1" class="edge">
<title>0&#45;&gt;3</title>
<path fill="none" stroke="black" d="M20.28,-103.59C31.26,-110.9 49.6,-123.14 62.18,-131.52"/>
<polygon fill="black" stroke="black" points="61.4,-133.1 66.53,-134.42 63.34,-130.19 61.4,-133.1"/>
</g>
<!-- 1 -->
<g id="node2" class="node">
<title>1</title>
<ellipse fill="#eeeee0" stroke="black" cx="54.2" cy="-97.4" rx="11" ry="11"/>
<text text-anchor="middle" x="54.2" y="-94.3" font-family="Times,serif" font-size="12.00">1</text>
</g>
<!-- 1&#45;&gt;3 -->
<g id="edge2" class="edge">
<title>1&#45;&gt;3</title>
<path fill="none" stroke="black" d="M59.21,-107.42C61.99,-112.98 65.5,-120 68.57,-126.14"/>
<polygon fill="black" stroke="black" points="67.02,-126.95 70.82,-130.63 70.15,-125.38 67.02,-126.95"/>
</g>
<!-- 2 -->
<g id="node3" class="node">
<title>2</title>
<ellipse fill="white" stroke="black" cx="97.4" cy="-97.4" rx="11" ry="11"/>
<text text-anchor="middle" x="97.4" y="-94.3" font-family="Times,serif" font-size="12.00">2</text>
</g>
<!-- 2&#45;&gt;3 -->
<g id="edge3" class="edge">
<title>2&#45;&gt;3</title>
<path fill="none" stroke="black" d="M92.39,-107.42C89.61,-112.98 86.1,-120 83.03,-126.14"/>
<polygon fill="black" stroke="black" points="81.45,-125.38 80.78,-130.63 84.58,-126.95 81.45,-125.38"/>
</g>
<!-- 4 -->
<g id="node5" class="node">
<title>4</title>
<ellipse fill="#eeeee0" stroke="black" cx="140.6" cy="-97.4" rx="11" ry="11"/>
<text text-anchor="middle" x="140.6" y="-94.3" font-family="Times,serif" font-size="12.00">4</text>
</g>
<!-- 4&#45;&gt;3 -->
<g id="edge4" class="edge">
<title>4&#45;&gt;3</title>
<path fill="none" stroke="black" d="M131.32,-103.59C120.34,-110.9 102,-123.14 89.42,-131.52"/>
<polygon fill="black" stroke="black" points="88.26,-130.19 85.07,-134.42 90.2,-133.1 88.26,-130.19"/>
</g>
<!-- 5 -->
<g id="node6" class="node">
<title>5</title>
<ellipse fill="white" stroke="black" cx="97.4" cy="-54.2" rx="11" ry="11"/>
<text text-anchor="middle" x="97.4" y="-51.1" font-family="Times,serif" font-size="12.00">5</text>
</g>
<!-- 5&#45;&gt;4 -->
<g id="edge5" class="edge">
<title>5&#45;&gt;4</title>
<path fill="none" stroke="black" d="M105.32,-62.12C111.9,-68.7 121.35,-78.15 128.82,-85.62"/>
<polygon fill="black" stroke="black" points="127.95,-87.23 132.73,-89.53 130.43,-84.75 127.95,-87.23"/>
</g>
<!-- 6 -->
<g id="node7" class="node">
<title>6</title>
<ellipse fill="white" stroke="black" cx="140.6" cy="-54.2" rx="11" ry="11"/>
<text text-anchor="middle" x="140.6" y="-51.1" font-family="Times,serif" font-size="12.00">6</text>
</g>
<!-- 6&#45;&gt;4 -->
<g id="edge6" class="edge">
<title>6&#45;&gt;4</title>
<path fill="none" stroke="black" d="M140.6,-65.55C140.6,-70.35 140.6,-76.03 140.6,-81.25"/>
<polygon fill="black" stroke="black" points="138.85,-81.27 140.6,-86.27 142.35,-81.27 138.85,-81.27"/>
</g>
<!-- 7 -->
<g id="node8" class="node">
<title>7</title>
<ellipse fill="#eeeee0" stroke="black" cx="140.6" cy="-11" rx="11" ry="11"/>
<text text-anchor="middle" x="140.6" y="-7.9" font-family="Times,serif" font-size="12.00">7</text>
</g>
<!-- 7&#45;&gt;6 -->
<g id="edge7" class="edge">
<title>7&#45;&gt;6</title>
<path fill="none" stroke="black" d="M140.6,-22.35C140.6,-27.15 140.6,-32.83 140.6,-38.05"/>
<polygon fill="black" stroke="black" points="138.85,-38.07 140.6,-43.07 142.35,-38.07 138.85,-38.07"/>
</g>
<!-- 8 -->
<g id="node9" class="node">
<title>8</title>
<ellipse fill="white" stroke="black" cx="183.8" cy="-54.2" rx="11" ry="11"/>
<text text-anchor="middle" x="183.8" y="-51.1" font-family="Times,serif" font-size="12.00">8</text>
</g>
<!-- 8&#45;&gt;4 -->
<g id="edge8" class="edge">
<title>8&#45;&gt;4</title>
<path fill="none" stroke="black" d="M175.88,-62.12C169.3,-68.7 159.85,-78.15 152.38,-85.62"/>
<polygon fill="black" stroke="black" points="150.77,-84.75 148.47,-89.53 153.25,-87.23 150.77,-84.75"/>
</g>
<!-- 9 -->
<g id="node10" class="node">
<title>9</title>
<ellipse fill="white" stroke="black" cx="183.8" cy="-11" rx="11" ry="11"/>
<text text-anchor="middle" x="183.8" y="-7.9" font-family="Times,serif" font-size="12.00">9</text>
</g>
<!-- 9&#45;&gt;8 -->
<g id="edge9" class="edge">
<title>9&#45;&gt;8</title>
<path fill="none" stroke="black" d="M183.8,-22.35C183.8,-27.15 183.8,-32.83 183.8,-38.05"/>
<polygon fill="black" stroke="black" points="182.05,-38.07 183.8,-43.07 185.55,-38.07 182.05,-38.07"/>
</g>
<!-- 10 -->
<g id="node11" class="node">
<title>10</title>
<ellipse fill="white" stroke="black" cx="227" cy="-97.4" rx="11" ry="11"/>
<text text-anchor="middle" x="227" y="-94.3" font-family="Times,serif" font-size="12.00">10</text>
</g>
<!-- 11 -->
<g id="node12" class="node">
<title>11</title>
<ellipse fill="#eeeee0" stroke="black" cx="270.2" cy="-140.6" rx="11" ry="11"/>
<text text-anchor="middle" x="270.2" y="-137.5" font-family="Times,serif" font-size="12.00">11</text>
</g>
<!-- 10&#45;&gt;11 -->
<g id="edge10" class="edge">
<title>10&#45;&gt;11</title>
<path fill="none" stroke="black" d="M234.92,-105.32C241.5,-111.9 250.95,-121.35 258.42,-128.82"/>
<polygon fill="black" stroke="black" points="257.55,-130.43 262.33,-132.73 260.03,-127.95 257.55,-130.43"/>
</g>
<!-- 12 -->
<g id="node13" class="node">
<title>12</title>
<ellipse fill="white" stroke="black" cx="270.2" cy="-97.4" rx="11" ry="11"/>
<text text-anchor="middle" x="270.2" y="-94.3" font-family="Times,serif" font-size="12.00">12</text>
</g>
<!-- 12&#45;&gt;11 -->
<g id="edge11" class="edge">
<title>12&#45;&gt;11</title>
<path fill="none" stroke="black" d="M270.2,-108.75C270.2,-113.55 270.2,-119.23 270.2,-124.45"/>
<polygon fill="black" stroke="black" points="268.45,-124.47 270.2,-129.47 271.95,-124.47 268.45,-124.47"/>
</g>
<!-- 13 -->
<g id="node14" class="node">
<title>13</title>
<ellipse fill="#eeeee0" stroke="black" cx="313.4" cy="-97.4" rx="11" ry="11"/>
<text text-anchor="middle" x="313.4" y="-94.3" font-family="Times,serif" font-size="12.00">13</text>
</g>
<!-- 13&#45;&gt;11 -->
<g id="edge12" class="edge">
<title>13&#45;&gt;11</title>
<path fill="none" stroke="black" d="M305.48,-105.32C298.9,-111.9 289.45,-121.35 281.98,-128.82"/>
<polygon fill="black" stroke="black" points="280.37,-127.95 278.07,-132.73 282.85,-130.43 280.37,-127.95"/>
</g>
<!-- 14 -->
<g id="node15" class="node">
<title>14</title>
<ellipse fill="white" stroke="black" cx="291.8" cy="-54.2" rx="11" ry="11"/>
<text text-anchor="middle" x="291.8" y="-51.1" font-family="Times,serif" font-size="12.00">14</text>
</g>
<!-- 14&#45;&gt;13 -->
<g id="edge13" class="edge">
<title>14&#45;&gt;13</title>
<path fill="none" stroke="black" d="M296.81,-64.22C299.59,-69.78 303.1,-76.8 306.17,-82.94"/>
<polygon fill="black" stroke="black" points="304.62,-83.75 308.42,-87.43 307.75,-82.18 304.62,-83.75"/>
</g>
<!-- 15 -->
<g id="node16" class="node">
<title>15</title>
<ellipse fill="white" stroke="black" cx="335" cy="-54.2" rx="11" ry="11"/>
<text text-anchor="middle" x="335" y="-51.1" font-family="Times,serif" font-size="12.00">15</text>
</g>
<!-- 15&#45;&gt;13 -->
<g id="edge14" class="edge">
<title>15&#45;&gt;13</title>
<path fill="none" stroke="black" d="M329.99,-64.22C327.21,-69.78 323.7,-76.8 320.63,-82.94"/>
<polygon fill="black" stroke="black" points="319.05,-82.18 318.38,-87.43 322.18,-83.75 319.05,-82.18"/>
</g>
</g>
</svg>
