<?xml version="1.0" encoding="UTF-8" standalone="no"?>
<!DOCTYPE svg PUBLIC "-//W3C//DTD SVG 1.1//EN"
 "http://www.w3.org/Graphics/SVG/1.1/DTD/svg11.dtd">
<!-- Generated by graphviz version 2.50.0 (20211204.2007)
 -->
<!-- Pages: 1 -->
<svg width="210pt" height="30pt"
 viewBox="0.00 0.00 210.00 30.00" xmlns="http://www.w3.org/2000/svg" xmlns:xlink="http://www.w3.org/1999/xlink">
<g id="graph0" class="graph" transform="scale(1 1) rotate(0) translate(4 26)">
<polygon fill="white" stroke="transparent" points="-4,4 -4,-26 206,-26 206,4 -4,4"/>
<!-- 1 -->
<g id="node1" class="node">
<title>1</title>
<ellipse fill="lightblue" stroke="black" cx="83" cy="-11" rx="11" ry="11"/>
<text text-anchor="middle" x="83" y="-7.9" font-family="Times,serif" font-size="12.00">i</text>
</g>
<!-- 2 -->
<g id="node2" class="node">
<title>2</title>
<ellipse fill="lightblue" stroke="black" cx="119" cy="-11" rx="11" ry="11"/>
<text text-anchor="middle" x="119" y="-7.9" font-family="Times,serif" font-size="12.00"> </text>
</g>
<!-- 1&#45;&#45;2 -->
<g id="edge1" class="edge">
<title>1&#45;&#45;2</title>
<path fill="none" stroke="black" d="M94.39,-11C98.68,-11 103.54,-11 107.81,-11"/>
</g>
<!-- 3 -->
<g id="node3" class="node">
<title>3</title>
<ellipse fill="lightblue" stroke="black" cx="155" cy="-11" rx="11" ry="11"/>
<text text-anchor="middle" x="155" y="-7.9" font-family="Times,serif" font-size="12.00"> </text>
</g>
<!-- 2&#45;&#45;3 -->
<g id="edge2" class="edge">
<title>2&#45;&#45;3</title>
<path fill="none" stroke="black" d="M130.39,-11C134.68,-11 139.54,-11 143.81,-11"/>
</g>
<!-- 4 -->
<g id="node4" class="node">
<title>4</title>
<ellipse fill="lightblue" stroke="black" cx="191" cy="-11" rx="11" ry="11"/>
<text text-anchor="middle" x="191" y="-7.9" font-family="Times,serif" font-size="12.00"> </text>
</g>
<!-- 3&#45;&#45;4 -->
<g id="edge3" class="edge">
<title>3&#45;&#45;4</title>
<path fill="none" stroke="black" d="M166.39,-11C170.68,-11 175.54,-11 179.81,-11"/>
</g>
<!-- 5 -->
<g id="node5" class="node">
<title>5</title>
<ellipse fill="lemonchiffon" stroke="black" cx="47" cy="-11" rx="11" ry="11"/>
<text text-anchor="middle" x="47" y="-7.9" font-family="Times,serif" font-size="12.00">j</text>
</g>
<!-- 5&#45;&#45;1 -->
<g id="edge5" class="edge">
<title>5&#45;&#45;1</title>
<path fill="none" stroke="black" d="M58.39,-11C62.68,-11 67.54,-11 71.81,-11"/>
</g>
<!-- 6 -->
<g id="node6" class="node">
<title>6</title>
<ellipse fill="lemonchiffon" stroke="black" cx="11" cy="-11" rx="11" ry="11"/>
<text text-anchor="middle" x="11" y="-7.9" font-family="Times,serif" font-size="12.00"> </text>
</g>
<!-- 5&#45;&#45;6 -->
<g id="edge4" class="edge">
<title>5&#45;&#45;6</title>
<path fill="none" stroke="black" d="M35.61,-11C31.32,-11 26.46,-11 22.19,-11"/>
</g>
</g>
</svg>
