<?xml version="1.0" encoding="UTF-8" standalone="no"?>
<!DOCTYPE svg PUBLIC "-//W3C//DTD SVG 1.1//EN"
 "http://www.w3.org/Graphics/SVG/1.1/DTD/svg11.dtd">
<!-- Generated by graphviz version 2.50.0 (20211204.2007)
 -->
<!-- Pages: 1 -->
<svg width="289pt" height="203pt"
 viewBox="0.00 0.00 289.20 202.80" xmlns="http://www.w3.org/2000/svg" xmlns:xlink="http://www.w3.org/1999/xlink">
<g id="graph0" class="graph" transform="scale(1 1) rotate(0) translate(4 198.8)">
<polygon fill="white" stroke="transparent" points="-4,4 -4,-198.8 285.2,-198.8 285.2,4 -4,4"/>
<!-- 0 -->
<g id="node1" class="node">
<title>0</title>
<ellipse fill="white" stroke="black" cx="11" cy="-11" rx="11" ry="11"/>
<text text-anchor="middle" x="11" y="-7.9" font-family="Times,serif" font-size="12.00">0</text>
</g>
<!-- 3 -->
<g id="node4" class="node">
<title>3</title>
<ellipse fill="#eeeee0" stroke="black" cx="54.2" cy="-54.2" rx="11" ry="11"/>
<text text-anchor="middle" x="54.2" y="-51.1" font-family="Times,serif" font-size="12.00">3</text>
</g>
<!-- 0&#45;&gt;3 -->
<g id="edge1" class="edge">
<title>0&#45;&gt;3</title>
<path fill="none" stroke="black" d="M18.92,-18.92C25.5,-25.5 34.95,-34.95 42.42,-42.42"/>
<polygon fill="black" stroke="black" points="41.55,-44.03 46.33,-46.33 44.03,-41.55 41.55,-44.03"/>
</g>
<!-- 1 -->
<g id="node2" class="node">
<title>1</title>
<ellipse fill="#eeeee0" stroke="black" cx="54.2" cy="-11" rx="11" ry="11"/>
<text text-anchor="middle" x="54.2" y="-7.9" font-family="Times,serif" font-size="12.00">1</text>
</g>
<!-- 1&#45;&gt;3 -->
<g id="edge2" class="edge">
<title>1&#45;&gt;3</title>
<path fill="none" stroke="black" d="M54.2,-22.35C54.2,-27.15 54.2,-32.83 54.2,-38.05"/>
<polygon fill="black" stroke="black" points="52.45,-38.07 54.2,-43.07 55.95,-38.07 52.45,-38.07"/>
</g>
<!-- 2 -->
<g id="node3" class="node">
<title>2</title>
<ellipse fill="white" stroke="black" cx="97.4" cy="-11" rx="11" ry="11"/>
<text text-anchor="middle" x="97.4" y="-7.9" font-family="Times,serif" font-size="12.00">2</text>
</g>
<!-- 2&#45;&gt;3 -->
<g id="edge3" class="edge">
<title>2&#45;&gt;3</title>
<path fill="none" stroke="black" d="M89.48,-18.92C82.9,-25.5 73.45,-34.95 65.98,-42.42"/>
<polygon fill="black" stroke="black" points="64.37,-41.55 62.07,-46.33 66.85,-44.03 64.37,-41.55"/>
</g>
<!-- 4 -->
<g id="node5" class="node">
<title>4</title>
<ellipse fill="#eeeee0" stroke="black" cx="119" cy="-97.4" rx="11" ry="11"/>
<text text-anchor="middle" x="119" y="-94.3" font-family="Times,serif" font-size="12.00">4</text>
</g>
<!-- 3&#45;&gt;4 -->
<g id="edge4" class="edge">
<title>3&#45;&gt;4</title>
<path fill="none" stroke="black" d="M63.48,-60.39C74.46,-67.7 92.8,-79.94 105.38,-88.32"/>
<polygon fill="black" stroke="black" points="104.6,-89.9 109.73,-91.22 106.54,-86.99 104.6,-89.9"/>
</g>
<!-- 7 -->
<g id="node8" class="node">
<title>7</title>
<ellipse fill="#eeeee0" stroke="black" cx="119" cy="-140.6" rx="11" ry="11"/>
<text text-anchor="middle" x="119" y="-137.5" font-family="Times,serif" font-size="12.00">7</text>
</g>
<!-- 4&#45;&gt;7 -->
<g id="edge5" class="edge">
<title>4&#45;&gt;7</title>
<path fill="none" stroke="black" d="M119,-108.75C119,-113.55 119,-119.23 119,-124.45"/>
<polygon fill="black" stroke="black" points="117.25,-124.47 119,-129.47 120.75,-124.47 117.25,-124.47"/>
</g>
<!-- 5 -->
<g id="node6" class="node">
<title>5</title>
<ellipse fill="white" stroke="black" cx="97.4" cy="-54.2" rx="11" ry="11"/>
<text text-anchor="middle" x="97.4" y="-51.1" font-family="Times,serif" font-size="12.00">5</text>
</g>
<!-- 5&#45;&gt;4 -->
<g id="edge6" class="edge">
<title>5&#45;&gt;4</title>
<path fill="none" stroke="black" d="M102.41,-64.22C105.19,-69.78 108.7,-76.8 111.77,-82.94"/>
<polygon fill="black" stroke="black" points="110.22,-83.75 114.02,-87.43 113.35,-82.18 110.22,-83.75"/>
</g>
<!-- 6 -->
<g id="node7" class="node">
<title>6</title>
<ellipse fill="white" stroke="black" cx="140.6" cy="-54.2" rx="11" ry="11"/>
<text text-anchor="middle" x="140.6" y="-51.1" font-family="Times,serif" font-size="12.00">6</text>
</g>
<!-- 6&#45;&gt;4 -->
<g id="edge7" class="edge">
<title>6&#45;&gt;4</title>
<path fill="none" stroke="black" d="M135.59,-64.22C132.81,-69.78 129.3,-76.8 126.23,-82.94"/>
<polygon fill="black" stroke="black" points="124.65,-82.18 123.98,-87.43 127.78,-83.75 124.65,-82.18"/>
</g>
<!-- 11 -->
<g id="node12" class="node">
<title>11</title>
<ellipse fill="#eeeee0" stroke="black" cx="183.8" cy="-183.8" rx="11" ry="11"/>
<text text-anchor="middle" x="183.8" y="-180.7" font-family="Times,serif" font-size="12.00">11</text>
</g>
<!-- 7&#45;&gt;11 -->
<g id="edge8" class="edge">
<title>7&#45;&gt;11</title>
<path fill="none" stroke="black" d="M128.28,-146.79C139.26,-154.1 157.6,-166.34 170.18,-174.72"/>
<polygon fill="black" stroke="black" points="169.4,-176.3 174.53,-177.62 171.34,-173.39 169.4,-176.3"/>
</g>
<!-- 8 -->
<g id="node9" class="node">
<title>8</title>
<ellipse fill="white" stroke="black" cx="183.8" cy="-54.2" rx="11" ry="11"/>
<text text-anchor="middle" x="183.8" y="-51.1" font-family="Times,serif" font-size="12.00">8</text>
</g>
<!-- 8&#45;&gt;4 -->
<g id="edge9" class="edge">
<title>8&#45;&gt;4</title>
<path fill="none" stroke="black" d="M174.52,-60.39C163.54,-67.7 145.2,-79.94 132.62,-88.32"/>
<polygon fill="black" stroke="black" points="131.46,-86.99 128.27,-91.22 133.4,-89.9 131.46,-86.99"/>
</g>
<!-- 9 -->
<g id="node10" class="node">
<title>9</title>
<ellipse fill="white" stroke="black" cx="183.8" cy="-11" rx="11" ry="11"/>
<text text-anchor="middle" x="183.8" y="-7.9" font-family="Times,serif" font-size="12.00">9</text>
</g>
<!-- 9&#45;&gt;8 -->
<g id="edge10" class="edge">
<title>9&#45;&gt;8</title>
<path fill="none" stroke="black" d="M183.8,-22.35C183.8,-27.15 183.8,-32.83 183.8,-38.05"/>
<polygon fill="black" stroke="black" points="182.05,-38.07 183.8,-43.07 185.55,-38.07 182.05,-38.07"/>
</g>
<!-- 10 -->
<g id="node11" class="node">
<title>10</title>
<ellipse fill="white" stroke="black" cx="162.2" cy="-140.6" rx="11" ry="11"/>
<text text-anchor="middle" x="162.2" y="-137.5" font-family="Times,serif" font-size="12.00">10</text>
</g>
<!-- 10&#45;&gt;11 -->
<g id="edge11" class="edge">
<title>10&#45;&gt;11</title>
<path fill="none" stroke="black" d="M167.21,-150.62C169.99,-156.18 173.5,-163.2 176.57,-169.34"/>
<polygon fill="black" stroke="black" points="175.02,-170.15 178.82,-173.83 178.15,-168.58 175.02,-170.15"/>
</g>
<!-- 12 -->
<g id="node13" class="node">
<title>12</title>
<ellipse fill="white" stroke="black" cx="205.4" cy="-140.6" rx="11" ry="11"/>
<text text-anchor="middle" x="205.4" y="-137.5" font-family="Times,serif" font-size="12.00">12</text>
</g>
<!-- 12&#45;&gt;11 -->
<g id="edge12" class="edge">
<title>12&#45;&gt;11</title>
<path fill="none" stroke="black" d="M200.39,-150.62C197.61,-156.18 194.1,-163.2 191.03,-169.34"/>
<polygon fill="black" stroke="black" points="189.45,-168.58 188.78,-173.83 192.58,-170.15 189.45,-168.58"/>
</g>
<!-- 13 -->
<g id="node14" class="node">
<title>13</title>
<ellipse fill="#eeeee0" stroke="black" cx="248.6" cy="-140.6" rx="11" ry="11"/>
<text text-anchor="middle" x="248.6" y="-137.5" font-family="Times,serif" font-size="12.00">13</text>
</g>
<!-- 13&#45;&gt;11 -->
<g id="edge13" class="edge">
<title>13&#45;&gt;11</title>
<path fill="none" stroke="black" d="M239.32,-146.79C228.34,-154.1 210,-166.34 197.42,-174.72"/>
<polygon fill="black" stroke="black" points="196.26,-173.39 193.07,-177.62 198.2,-176.3 196.26,-173.39"/>
</g>
<!-- 14 -->
<g id="node15" class="node">
<title>14</title>
<ellipse fill="white" stroke="black" cx="227" cy="-97.4" rx="11" ry="11"/>
<text text-anchor="middle" x="227" y="-94.3" font-family="Times,serif" font-size="12.00">14</text>
</g>
<!-- 14&#45;&gt;13 -->
<g id="edge14" class="edge">
<title>14&#45;&gt;13</title>
<path fill="none" stroke="black" d="M232.01,-107.42C234.79,-112.98 238.3,-120 241.37,-126.14"/>
<polygon fill="black" stroke="black" points="239.82,-126.95 243.62,-130.63 242.95,-125.38 239.82,-126.95"/>
</g>
<!-- 15 -->
<g id="node16" class="node">
<title>15</title>
<ellipse fill="white" stroke="black" cx="270.2" cy="-97.4" rx="11" ry="11"/>
<text text-anchor="middle" x="270.2" y="-94.3" font-family="Times,serif" font-size="12.00">15</text>
</g>
<!-- 15&#45;&gt;13 -->
<g id="edge15" class="edge">
<title>15&#45;&gt;13</title>
<path fill="none" stroke="black" d="M265.19,-107.42C262.41,-112.98 258.9,-120 255.83,-126.14"/>
<polygon fill="black" stroke="black" points="254.25,-125.38 253.58,-130.63 257.38,-126.95 254.25,-125.38"/>
</g>
</g>
</svg>
