<?xml version="1.0" encoding="UTF-8" standalone="no"?>
<!DOCTYPE svg PUBLIC "-//W3C//DTD SVG 1.1//EN"
 "http://www.w3.org/Graphics/SVG/1.1/DTD/svg11.dtd">
<!-- Generated by graphviz version 2.50.0 (20211204.2007)
 -->
<!-- Pages: 1 -->
<svg width="138pt" height="115pt"
 viewBox="0.00 0.00 138.00 115.00" xmlns="http://www.w3.org/2000/svg" xmlns:xlink="http://www.w3.org/1999/xlink">
<g id="graph0" class="graph" transform="scale(1 1) rotate(0) translate(4 111)">
<polygon fill="white" stroke="transparent" points="-4,4 -4,-111 134,-111 134,4 -4,4"/>
<!-- 0 -->
<g id="node1" class="node">
<title>0</title>
<ellipse fill="lightblue" stroke="black" cx="11" cy="-47" rx="11" ry="11"/>
<text text-anchor="middle" x="11" y="-43.9" font-family="Times,serif" font-size="12.00">0</text>
</g>
<!-- 1 -->
<g id="node2" class="node">
<title>1</title>
<ellipse fill="white" stroke="black" cx="65" cy="-83" rx="11" ry="11"/>
<text text-anchor="middle" x="65" y="-79.9" font-family="Times,serif" font-size="12.00">1</text>
</g>
<!-- 0&#45;&gt;1 -->
<g id="edge1" class="edge">
<title>0&#45;&gt;1</title>
<path fill="none" stroke="black" d="M20.41,-53.27C29,-59 41.81,-67.54 51.5,-74"/>
<polygon fill="black" stroke="black" points="50.57,-75.48 55.7,-76.8 52.51,-72.57 50.57,-75.48"/>
<text text-anchor="middle" x="32.45" y="-67.43" font-family="Times,serif" font-size="14.00">a</text>
</g>
<!-- 2 -->
<g id="node3" class="node">
<title>2</title>
<ellipse fill="lemonchiffon" stroke="black" cx="65" cy="-11" rx="11" ry="11"/>
<text text-anchor="middle" x="65" y="-7.9" font-family="Times,serif" font-size="12.00">2</text>
</g>
<!-- 0&#45;&gt;2 -->
<g id="edge2" class="edge">
<title>0&#45;&gt;2</title>
<path fill="none" stroke="black" d="M20.41,-40.73C29,-35 41.81,-26.46 51.5,-20"/>
<polygon fill="black" stroke="black" points="52.51,-21.43 55.7,-17.2 50.57,-18.52 52.51,-21.43"/>
<text text-anchor="middle" x="32.45" y="-34.17" font-family="Times,serif" font-size="14.00">b</text>
</g>
<!-- 1&#45;&gt;2 -->
<g id="edge4" class="edge">
<title>1&#45;&gt;2</title>
<path fill="none" stroke="black" d="M65,-71.75C65,-59.88 65,-41.05 65,-27.5"/>
<polygon fill="black" stroke="black" points="66.75,-27.41 65,-22.41 63.25,-27.41 66.75,-27.41"/>
<text text-anchor="middle" x="61.5" y="-53.42" font-family="Times,serif" font-size="14.00">c</text>
</g>
<!-- 3 -->
<g id="node4" class="node">
<title>3</title>
<ellipse fill="lemonchiffon" stroke="black" cx="119" cy="-83" rx="11" ry="11"/>
<text text-anchor="middle" x="119" y="-79.9" font-family="Times,serif" font-size="12.00">3</text>
<text text-anchor="middle" x="103" y="-97.4" font-family="Times,serif" font-size="12.00">⭑</text>
</g>
<!-- 1&#45;&gt;3 -->
<g id="edge3" class="edge">
<title>1&#45;&gt;3</title>
<path fill="none" stroke="black" d="M76.19,-83C83.86,-83 94.17,-83 102.75,-83"/>
<polygon fill="black" stroke="black" points="102.83,-84.75 107.83,-83 102.83,-81.25 102.83,-84.75"/>
<text text-anchor="middle" x="85.97" y="-86.8" font-family="Times,serif" font-size="14.00">b</text>
</g>
<!-- 2&#45;&gt;2 -->
<g id="edge5" class="edge">
<title>2&#45;&gt;2</title>
<path fill="none" stroke="black" d="M74.81,-16.46C84.01,-19.29 94,-17.47 94,-11 94,-5.74 87.41,-3.56 80,-4.44"/>
<polygon fill="black" stroke="black" points="79.33,-2.79 74.81,-5.54 80.06,-6.22 79.33,-2.79"/>
<text text-anchor="middle" x="97.5" y="-7.3" font-family="Times,serif" font-size="14.00">a</text>
</g>
</g>
</svg>
