<?xml version="1.0" encoding="UTF-8" standalone="no"?>
<!DOCTYPE svg PUBLIC "-//W3C//DTD SVG 1.1//EN"
 "http://www.w3.org/Graphics/SVG/1.1/DTD/svg11.dtd">
<!-- Generated by graphviz version 2.47.0 (20210316.0004)
 -->
<!-- Pages: 1 -->
<svg width="188pt" height="188pt"
 viewBox="0.00 0.00 188.20 188.20" xmlns="http://www.w3.org/2000/svg" xmlns:xlink="http://www.w3.org/1999/xlink">
<g id="graph0" class="graph" transform="scale(1 1) rotate(0) translate(4 184.2)">
<polygon fill="white" stroke="transparent" points="-4,4 -4,-184.2 184.2,-184.2 184.2,4 -4,4"/>
<!-- 0 -->
<g id="node1" class="node">
<title>0</title>
<ellipse fill="white" stroke="black" cx="127.9" cy="-127.9" rx="14.5" ry="14.5"/>
<text text-anchor="middle" x="127.9" y="-124.2" font-family="Times New Roman,serif" font-size="14.00">1</text>
</g>
<!-- 1 -->
<g id="node2" class="node">
<title>1</title>
<ellipse fill="white" stroke="black" cx="52.3" cy="-127.9" rx="14.5" ry="14.5"/>
<text text-anchor="middle" x="52.3" y="-124.2" font-family="Times New Roman,serif" font-size="14.00">2</text>
</g>
<!-- 0&#45;&#45;1 -->
<g id="edge3" class="edge">
<title>0&#45;&#45;1</title>
<path fill="none" stroke="black" d="M113.32,-127.9C99.94,-127.9 80.2,-127.9 66.83,-127.9"/>
</g>
<!-- 3 -->
<g id="node4" class="node">
<title>3</title>
<ellipse fill="white" stroke="black" cx="127.9" cy="-52.3" rx="14.5" ry="14.5"/>
<text text-anchor="middle" x="127.9" y="-48.6" font-family="Times New Roman,serif" font-size="14.00">4</text>
</g>
<!-- 0&#45;&#45;3 -->
<g id="edge2" class="edge">
<title>0&#45;&#45;3</title>
<path fill="none" stroke="black" d="M127.9,-113.32C127.9,-99.94 127.9,-80.2 127.9,-66.83"/>
</g>
<!-- 4 -->
<g id="node5" class="node">
<title>4</title>
<ellipse fill="white" stroke="black" cx="165.7" cy="-165.7" rx="14.5" ry="14.5"/>
<text text-anchor="middle" x="165.7" y="-162" font-family="Times New Roman,serif" font-size="14.00">5</text>
</g>
<!-- 0&#45;&#45;4 -->
<g id="edge1" class="edge">
<title>0&#45;&#45;4</title>
<path fill="none" stroke="black" d="M138.23,-138.23C143.56,-143.56 150.05,-150.05 155.38,-155.38"/>
</g>
<!-- 2 -->
<g id="node3" class="node">
<title>2</title>
<ellipse fill="white" stroke="black" cx="52.3" cy="-52.3" rx="14.5" ry="14.5"/>
<text text-anchor="middle" x="52.3" y="-48.6" font-family="Times New Roman,serif" font-size="14.00">3</text>
</g>
<!-- 1&#45;&#45;2 -->
<g id="edge5" class="edge">
<title>1&#45;&#45;2</title>
<path fill="none" stroke="black" d="M52.3,-113.32C52.3,-99.94 52.3,-80.2 52.3,-66.83"/>
</g>
<!-- 5 -->
<g id="node6" class="node">
<title>5</title>
<ellipse fill="white" stroke="black" cx="14.5" cy="-165.7" rx="14.5" ry="14.5"/>
<text text-anchor="middle" x="14.5" y="-162" font-family="Times New Roman,serif" font-size="14.00">6</text>
</g>
<!-- 1&#45;&#45;5 -->
<g id="edge4" class="edge">
<title>1&#45;&#45;5</title>
<path fill="none" stroke="black" d="M41.97,-138.23C36.64,-143.56 30.15,-150.05 24.82,-155.38"/>
</g>
<!-- 2&#45;&#45;3 -->
<g id="edge7" class="edge">
<title>2&#45;&#45;3</title>
<path fill="none" stroke="black" d="M66.88,-52.3C80.26,-52.3 100,-52.3 113.37,-52.3"/>
</g>
<!-- 6 -->
<g id="node7" class="node">
<title>6</title>
<ellipse fill="white" stroke="black" cx="14.5" cy="-14.5" rx="14.5" ry="14.5"/>
<text text-anchor="middle" x="14.5" y="-10.8" font-family="Times New Roman,serif" font-size="14.00">7</text>
</g>
<!-- 2&#45;&#45;6 -->
<g id="edge6" class="edge">
<title>2&#45;&#45;6</title>
<path fill="none" stroke="black" d="M41.97,-41.97C36.64,-36.64 30.15,-30.15 24.82,-24.82"/>
</g>
<!-- 7 -->
<g id="node8" class="node">
<title>7</title>
<ellipse fill="white" stroke="black" cx="165.7" cy="-14.5" rx="14.5" ry="14.5"/>
<text text-anchor="middle" x="165.7" y="-10.8" font-family="Times New Roman,serif" font-size="14.00">8</text>
</g>
<!-- 3&#45;&#45;7 -->
<g id="edge8" class="edge">
<title>3&#45;&#45;7</title>
<path fill="none" stroke="black" d="M138.23,-41.97C143.56,-36.64 150.05,-30.15 155.38,-24.82"/>
</g>
<!-- 4&#45;&#45;5 -->
<g id="edge9" class="edge">
<title>4&#45;&#45;5</title>
<path fill="none" stroke="black" d="M150.93,-165.7C121.95,-165.7 57.96,-165.7 29.11,-165.7"/>
</g>
<!-- 4&#45;&#45;7 -->
<g id="edge10" class="edge">
<title>4&#45;&#45;7</title>
<path fill="none" stroke="black" d="M165.7,-150.93C165.7,-121.95 165.7,-57.96 165.7,-29.11"/>
</g>
<!-- 5&#45;&#45;6 -->
<g id="edge11" class="edge">
<title>5&#45;&#45;6</title>
<path fill="none" stroke="black" d="M14.5,-150.93C14.5,-121.95 14.5,-57.96 14.5,-29.11"/>
</g>
<!-- 6&#45;&#45;7 -->
<g id="edge12" class="edge">
<title>6&#45;&#45;7</title>
<path fill="none" stroke="black" d="M29.27,-14.5C58.25,-14.5 122.24,-14.5 151.09,-14.5"/>
</g>
</g>
</svg>
