<?xml version="1.0" encoding="UTF-8" standalone="no"?>
<!DOCTYPE svg PUBLIC "-//W3C//DTD SVG 1.1//EN"
 "http://www.w3.org/Graphics/SVG/1.1/DTD/svg11.dtd">
<!-- Generated by graphviz version 2.47.0 (20210316.0004)
 -->
<!-- Pages: 1 -->
<svg width="178pt" height="164pt"
 viewBox="0.00 0.00 177.74 164.36" xmlns="http://www.w3.org/2000/svg" xmlns:xlink="http://www.w3.org/1999/xlink">
<g id="graph0" class="graph" transform="scale(1 1) rotate(0) translate(4 160.36)">
<polygon fill="white" stroke="transparent" points="-4,4 -4,-160.36 173.74,-160.36 173.74,4 -4,4"/>
<!-- 0 -->
<g id="node1" class="node">
<title>0</title>
<ellipse fill="white" stroke="black" cx="17.12" cy="-74.65" rx="14.5" ry="14.5"/>
<text text-anchor="middle" x="17.12" y="-70.95" font-family="Times New Roman,serif" font-size="14.00">0</text>
</g>
<!-- 1 -->
<g id="node2" class="node">
<title>1</title>
<ellipse fill="white" stroke="black" cx="14.5" cy="-14.5" rx="14.5" ry="14.5"/>
<text text-anchor="middle" x="14.5" y="-10.8" font-family="Times New Roman,serif" font-size="14.00">1</text>
</g>
<!-- 0&#45;&#45;1 -->
<g id="edge1" class="edge">
<title>0&#45;&#45;1</title>
<path fill="none" stroke="black" d="M16.48,-60.09C16.08,-50.77 15.55,-38.72 15.15,-29.34"/>
</g>
<!-- 3 -->
<g id="node4" class="node">
<title>3</title>
<ellipse fill="white" stroke="black" cx="91.17" cy="-15.65" rx="14.5" ry="14.5"/>
<text text-anchor="middle" x="91.17" y="-11.95" font-family="Times New Roman,serif" font-size="14.00">3</text>
</g>
<!-- 0&#45;&#45;3 -->
<g id="edge2" class="edge">
<title>0&#45;&#45;3</title>
<path fill="none" stroke="black" d="M28.69,-65.43C42.52,-54.41 65.53,-36.07 79.43,-24.99"/>
</g>
<!-- 5 -->
<g id="node6" class="node">
<title>5</title>
<ellipse fill="white" stroke="black" cx="49.92" cy="-141.86" rx="14.5" ry="14.5"/>
<text text-anchor="middle" x="49.92" y="-138.16" font-family="Times New Roman,serif" font-size="14.00">5</text>
</g>
<!-- 0&#45;&#45;5 -->
<g id="edge3" class="edge">
<title>0&#45;&#45;5</title>
<path fill="none" stroke="black" d="M23.6,-87.93C29.35,-99.71 37.71,-116.83 43.45,-128.61"/>
</g>
<!-- 4 -->
<g id="node5" class="node">
<title>4</title>
<ellipse fill="#ffb5c5" stroke="black" cx="87.27" cy="-75.82" rx="14.5" ry="14.5"/>
<text text-anchor="middle" x="87.27" y="-72.12" font-family="Times New Roman,serif" font-size="14.00">4</text>
</g>
<!-- 1&#45;&#45;4 -->
<g id="edge4" class="edge">
<title>1&#45;&#45;4</title>
<path fill="none" stroke="black" d="M25.87,-24.08C39.46,-35.53 62.08,-54.59 75.74,-66.11"/>
</g>
<!-- 2 -->
<g id="node3" class="node">
<title>2</title>
<ellipse fill="white" stroke="black" cx="155.24" cy="-47.19" rx="14.5" ry="14.5"/>
<text text-anchor="middle" x="155.24" y="-43.49" font-family="Times New Roman,serif" font-size="14.00">2</text>
</g>
<!-- 2&#45;&#45;3 -->
<g id="edge5" class="edge">
<title>2&#45;&#45;3</title>
<path fill="none" stroke="black" d="M141.97,-40.65C130.97,-35.24 115.42,-27.58 104.43,-22.17"/>
</g>
<!-- 2&#45;&#45;4 -->
<g id="edge6" class="edge">
<title>2&#45;&#45;4</title>
<path fill="none" stroke="black" d="M141.81,-52.85C129.9,-57.87 112.58,-65.16 100.67,-70.18"/>
</g>
<!-- 3&#45;&#45;4 -->
<g id="edge7" class="edge">
<title>3&#45;&#45;4</title>
<path fill="none" stroke="black" d="M90.22,-30.21C89.62,-39.53 88.84,-51.59 88.23,-60.97"/>
</g>
<!-- 4&#45;&#45;5 -->
<g id="edge8" class="edge">
<title>4&#45;&#45;5</title>
<path fill="none" stroke="black" d="M80.07,-88.56C73.45,-100.25 63.71,-117.49 57.1,-129.17"/>
</g>
</g>
</svg>
