<?xml version="1.0" encoding="UTF-8" standalone="no"?>
<!DOCTYPE svg PUBLIC "-//W3C//DTD SVG 1.1//EN"
 "http://www.w3.org/Graphics/SVG/1.1/DTD/svg11.dtd">
<!-- Generated by graphviz version 2.47.0 (20210316.0004)
 -->
<!-- Pages: 1 -->
<svg width="241pt" height="102pt"
 viewBox="0.00 0.00 241.26 101.56" xmlns="http://www.w3.org/2000/svg" xmlns:xlink="http://www.w3.org/1999/xlink">
<g id="graph0" class="graph" transform="scale(1 1) rotate(0) translate(4 97.56)">
<polygon fill="white" stroke="transparent" points="-4,4 -4,-97.56 237.26,-97.56 237.26,4 -4,4"/>
<!-- 0 -->
<g id="node1" class="node">
<title>0</title>
<ellipse fill="white" stroke="black" cx="11" cy="-52.64" rx="11" ry="11"/>
<text text-anchor="middle" x="11" y="-48.94" font-family="Times New Roman,serif" font-size="14.00">0</text>
</g>
<!-- 1 -->
<g id="node2" class="node">
<title>1</title>
<ellipse fill="white" stroke="black" cx="83.32" cy="-55.48" rx="11" ry="11"/>
<text text-anchor="middle" x="83.32" y="-51.78" font-family="Times New Roman,serif" font-size="14.00">1</text>
</g>
<!-- 0&#45;&gt;1 -->
<g id="edge1" class="edge">
<title>0&#45;&gt;1</title>
<path fill="none" stroke="black" d="M20.87,-57.88C32.98,-60.6 53.65,-61.67 67.88,-60.5"/>
<polygon fill="black" stroke="black" points="68.39,-62.2 73.16,-59.91 68,-58.72 68.39,-62.2"/>
</g>
<!-- 1&#45;&gt;0 -->
<g id="edge2" class="edge">
<title>1&#45;&gt;0</title>
<path fill="none" stroke="black" d="M73.46,-50.24C61.35,-47.52 40.67,-46.45 26.45,-47.62"/>
<polygon fill="black" stroke="black" points="25.94,-45.92 21.16,-48.21 26.32,-49.4 25.94,-45.92"/>
</g>
<!-- 3 -->
<g id="node4" class="node">
<title>3</title>
<ellipse fill="white" stroke="black" cx="156.62" cy="-50.48" rx="11" ry="11"/>
<text text-anchor="middle" x="156.62" y="-46.78" font-family="Times New Roman,serif" font-size="14.00">3</text>
</g>
<!-- 1&#45;&gt;3 -->
<g id="edge3" class="edge">
<title>1&#45;&gt;3</title>
<path fill="none" stroke="black" d="M94.46,-54.72C106.62,-53.89 126.22,-52.55 140.16,-51.6"/>
<polygon fill="black" stroke="black" points="140.51,-53.33 145.38,-51.25 140.27,-49.84 140.51,-53.33"/>
</g>
<!-- 2 -->
<g id="node3" class="node">
<title>2</title>
<ellipse fill="white" stroke="black" cx="218.13" cy="-11" rx="11" ry="11"/>
<text text-anchor="middle" x="218.13" y="-7.3" font-family="Times New Roman,serif" font-size="14.00">2</text>
</g>
<!-- 2&#45;&gt;3 -->
<g id="edge4" class="edge">
<title>2&#45;&gt;3</title>
<path fill="none" stroke="black" d="M208.78,-17C198.58,-23.55 182.13,-34.11 170.43,-41.62"/>
<polygon fill="black" stroke="black" points="169.31,-40.25 166.05,-44.43 171.2,-43.2 169.31,-40.25"/>
</g>
<!-- 4 -->
<g id="node5" class="node">
<title>4</title>
<ellipse fill="white" stroke="black" cx="222.26" cy="-82.56" rx="11" ry="11"/>
<text text-anchor="middle" x="222.26" y="-78.86" font-family="Times New Roman,serif" font-size="14.00">4</text>
</g>
<!-- 3&#45;&gt;4 -->
<g id="edge5" class="edge">
<title>3&#45;&gt;4</title>
<path fill="none" stroke="black" d="M166.59,-55.35C177.48,-60.68 195.04,-69.26 207.52,-75.36"/>
<polygon fill="black" stroke="black" points="206.94,-77.02 212.2,-77.64 208.48,-73.88 206.94,-77.02"/>
</g>
<!-- 4&#45;&gt;2 -->
<g id="edge6" class="edge">
<title>4&#45;&gt;2</title>
<path fill="none" stroke="black" d="M221.62,-71.38C220.94,-59.58 219.85,-40.86 219.07,-27.4"/>
<polygon fill="black" stroke="black" points="220.82,-27.23 218.78,-22.34 217.32,-27.43 220.82,-27.23"/>
</g>
</g>
</svg>
