<?xml version="1.0" encoding="UTF-8" standalone="no"?>
<!DOCTYPE svg PUBLIC "-//W3C//DTD SVG 1.1//EN"
 "http://www.w3.org/Graphics/SVG/1.1/DTD/svg11.dtd">
<!-- Generated by graphviz version 2.47.0 (20210316.0004)
 -->
<!-- Pages: 1 -->
<svg width="132pt" height="204pt"
 viewBox="0.00 0.00 132.29 204.13" xmlns="http://www.w3.org/2000/svg" xmlns:xlink="http://www.w3.org/1999/xlink">
<g id="graph0" class="graph" transform="scale(1 1) rotate(0) translate(4 200.13)">
<polygon fill="white" stroke="transparent" points="-4,4 -4,-200.13 128.29,-200.13 128.29,4 -4,4"/>
<!-- 0 -->
<g id="node1" class="node">
<title>0</title>
<ellipse fill="white" stroke="black" cx="59.55" cy="-92.72" rx="18" ry="18"/>
<text text-anchor="middle" x="59.55" y="-89.02" font-family="Times New Roman,serif" font-size="14.00">0</text>
</g>
<!-- 1 -->
<g id="node2" class="node">
<title>1</title>
<ellipse fill="white" stroke="black" cx="18" cy="-142.06" rx="18" ry="18"/>
<text text-anchor="middle" x="18" y="-138.36" font-family="Times New Roman,serif" font-size="14.00">1</text>
</g>
<!-- 0&#45;&#45;1 -->
<g id="edge1" class="edge">
<title>0&#45;&#45;1</title>
<path fill="none" stroke="black" d="M47.76,-106.73C42.09,-113.45 35.33,-121.49 29.68,-128.19"/>
</g>
<!-- 2 -->
<g id="node3" class="node">
<title>2</title>
<ellipse fill="white" stroke="black" cx="58.66" cy="-18" rx="18" ry="18"/>
<text text-anchor="middle" x="58.66" y="-14.3" font-family="Times New Roman,serif" font-size="14.00">2</text>
</g>
<!-- 0&#45;&#45;2 -->
<g id="edge2" class="edge">
<title>0&#45;&#45;2</title>
<path fill="none" stroke="black" d="M59.34,-74.63C59.2,-62.97 59.02,-47.86 58.88,-36.18"/>
</g>
<!-- 3 -->
<g id="node4" class="node">
<title>3</title>
<ellipse fill="white" stroke="black" cx="64.3" cy="-178.13" rx="18" ry="18"/>
<text text-anchor="middle" x="64.3" y="-174.43" font-family="Times New Roman,serif" font-size="14.00">3</text>
</g>
<!-- 0&#45;&#45;3 -->
<g id="edge3" class="edge">
<title>0&#45;&#45;3</title>
<path fill="none" stroke="black" d="M60.56,-110.84C61.37,-125.33 62.49,-145.56 63.29,-160.04"/>
</g>
<!-- 4 -->
<g id="node5" class="node">
<title>4</title>
<ellipse fill="white" stroke="black" cx="106.29" cy="-137.41" rx="18" ry="18"/>
<text text-anchor="middle" x="106.29" y="-133.71" font-family="Times New Roman,serif" font-size="14.00">4</text>
</g>
<!-- 0&#45;&#45;4 -->
<g id="edge4" class="edge">
<title>0&#45;&#45;4</title>
<path fill="none" stroke="black" d="M72.57,-105.17C78.95,-111.27 86.61,-118.59 93.02,-124.72"/>
</g>
<!-- 1&#45;&#45;3 -->
<g id="edge5" class="edge">
<title>1&#45;&#45;3</title>
<path fill="none" stroke="black" d="M32.4,-153.28C38.02,-157.66 44.46,-162.68 50.07,-167.05"/>
</g>
<!-- 1&#45;&#45;4 -->
<g id="edge6" class="edge">
<title>1&#45;&#45;4</title>
<path fill="none" stroke="black" d="M36.29,-141.1C51.45,-140.3 72.87,-139.17 88.02,-138.37"/>
</g>
<!-- 3&#45;&#45;4 -->
<g id="edge7" class="edge">
<title>3&#45;&#45;4</title>
<path fill="none" stroke="black" d="M77.59,-165.25C82.58,-160.4 88.26,-154.9 93.24,-150.07"/>
</g>
</g>
</svg>
