<?xml version="1.0" encoding="UTF-8" standalone="no"?>
<!DOCTYPE svg PUBLIC "-//W3C//DTD SVG 1.1//EN"
 "http://www.w3.org/Graphics/SVG/1.1/DTD/svg11.dtd">
<!-- Generated by graphviz version 2.50.0 (20211204.2007)
 -->
<!-- Pages: 1 -->
<svg width="80pt" height="242pt"
 viewBox="0.00 0.00 80.00 242.00" xmlns="http://www.w3.org/2000/svg" xmlns:xlink="http://www.w3.org/1999/xlink">
<g id="graph0" class="graph" transform="scale(1 1) rotate(0) translate(4 238)">
<polygon fill="white" stroke="transparent" points="-4,4 -4,-238 76,-238 76,4 -4,4"/>
<!-- 105 -->
<g id="node1" class="node">
<title>105</title>
<ellipse fill="#e0e0e0" stroke="black" cx="45" cy="-225" rx="9" ry="9"/>
</g>
<!-- 106 -->
<g id="node2" class="node">
<title>106</title>
<ellipse fill="#e0e0e0" stroke="black" cx="27" cy="-171" rx="9" ry="9"/>
</g>
<!-- 105&#45;&#45;106 -->
<g id="edge7" class="edge">
<title>105&#45;&#45;106</title>
<path fill="none" stroke="black" d="M42.34,-216.33C38.94,-206.5 33.08,-189.55 29.67,-179.7"/>
</g>
<!-- 117 -->
<g id="node9" class="node">
<title>117</title>
<ellipse fill="#e0e0e0" stroke="black" cx="63" cy="-171" rx="9" ry="9"/>
</g>
<!-- 105&#45;&#45;117 -->
<g id="edge8" class="edge">
<title>105&#45;&#45;117</title>
<path fill="none" stroke="black" d="M47.66,-216.33C51.06,-206.5 56.92,-189.55 60.33,-179.7"/>
</g>
<!-- 107 -->
<g id="node3" class="node">
<title>107</title>
<ellipse fill="#e0e0e0" stroke="black" cx="9" cy="-117" rx="9" ry="9"/>
</g>
<!-- 106&#45;&#45;107 -->
<g id="edge1" class="edge">
<title>106&#45;&#45;107</title>
<path fill="none" stroke="black" d="M24.34,-162.33C20.94,-152.5 15.08,-135.55 11.67,-125.7"/>
</g>
<!-- 110 -->
<g id="node4" class="node">
<title>110</title>
<ellipse fill="#e0e0e0" stroke="black" cx="45" cy="-117" rx="9" ry="9"/>
</g>
<!-- 106&#45;&#45;110 -->
<g id="edge6" class="edge">
<title>106&#45;&#45;110</title>
<path fill="none" stroke="black" d="M29.66,-162.33C33.06,-152.5 38.92,-135.55 42.33,-125.7"/>
</g>
<!-- 111 -->
<g id="node5" class="node">
<title>111</title>
<ellipse fill="#e0e0e0" stroke="black" cx="27" cy="-63" rx="9" ry="9"/>
</g>
<!-- 110&#45;&#45;111 -->
<g id="edge4" class="edge">
<title>110&#45;&#45;111</title>
<path fill="none" stroke="black" d="M42.34,-108.33C38.94,-98.5 33.08,-81.55 29.67,-71.7"/>
</g>
<!-- 116 -->
<g id="node8" class="node">
<title>116</title>
<text text-anchor="middle" x="63" y="-60.5" font-family="Times,serif" font-size="10.00">ø</text>
</g>
<!-- 110&#45;&#45;116 -->
<g id="edge5" class="edge">
<title>110&#45;&#45;116</title>
<path fill="none" stroke="black" d="M47.66,-108.33C51.02,-98.61 56.79,-81.94 60.21,-72.05"/>
</g>
<!-- 112 -->
<g id="node6" class="node">
<title>112</title>
<text text-anchor="middle" x="9" y="-6.5" font-family="Times,serif" font-size="10.00">ø</text>
</g>
<!-- 111&#45;&#45;112 -->
<g id="edge2" class="edge">
<title>111&#45;&#45;112</title>
<path fill="none" stroke="black" d="M24.34,-54.33C20.98,-44.61 15.21,-27.94 11.79,-18.05"/>
</g>
<!-- 113 -->
<g id="node7" class="node">
<title>113</title>
<ellipse fill="#e0e0e0" stroke="black" cx="45" cy="-9" rx="9" ry="9"/>
</g>
<!-- 111&#45;&#45;113 -->
<g id="edge3" class="edge">
<title>111&#45;&#45;113</title>
<path fill="none" stroke="black" d="M29.66,-54.33C33.06,-44.5 38.92,-27.55 42.33,-17.7"/>
</g>
</g>
</svg>
