<?xml version="1.0" encoding="UTF-8" standalone="no"?>
<!DOCTYPE svg PUBLIC "-//W3C//DTD SVG 1.1//EN"
 "http://www.w3.org/Graphics/SVG/1.1/DTD/svg11.dtd">
<!-- Generated by graphviz version 2.50.0 (20211204.2007)
 -->
<!-- Pages: 1 -->
<svg width="566pt" height="260pt"
 viewBox="0.00 0.00 566.00 260.00" xmlns="http://www.w3.org/2000/svg" xmlns:xlink="http://www.w3.org/1999/xlink">
<g id="graph0" class="graph" transform="scale(1 1) rotate(0) translate(4 256)">
<polygon fill="white" stroke="transparent" points="-4,4 -4,-256 562,-256 562,4 -4,4"/>
<!-- 0 -->
<g id="node1" class="node">
<title>0</title>
<polygon fill="#e0e0e0" stroke="transparent" points="306,-252 252,-252 252,-216 306,-216 306,-252"/>
<text text-anchor="middle" x="279" y="-231.5" font-family="Times,serif" font-size="10.00">Kamel</text>
</g>
<!-- 1 -->
<g id="node2" class="node">
<title>1</title>
<polygon fill="#e0e0e0" stroke="transparent" points="234,-180 180,-180 180,-144 234,-144 234,-180"/>
<text text-anchor="middle" x="207" y="-159.5" font-family="Times,serif" font-size="10.00">Kamel</text>
</g>
<!-- 0&#45;&#45;1 -->
<g id="edge7" class="edge">
<title>0&#45;&#45;1</title>
<path fill="none" stroke="black" d="M261.2,-215.7C250.04,-204.85 235.71,-190.92 224.59,-180.1"/>
</g>
<!-- 8 -->
<g id="node9" class="node">
<title>8</title>
<polygon fill="#e0e0e0" stroke="transparent" points="378,-180 324,-180 324,-144 378,-144 378,-180"/>
<text text-anchor="middle" x="351" y="-159.5" font-family="Times,serif" font-size="10.00">Carine</text>
</g>
<!-- 0&#45;&#45;8 -->
<g id="edge14" class="edge">
<title>0&#45;&#45;8</title>
<path fill="none" stroke="black" d="M296.8,-215.7C307.96,-204.85 322.29,-190.92 333.41,-180.1"/>
</g>
<!-- 2 -->
<g id="node3" class="node">
<title>2</title>
<polygon fill="#e0e0e0" stroke="transparent" points="126,-108 72,-108 72,-72 126,-72 126,-108"/>
<text text-anchor="middle" x="99" y="-87.5" font-family="Times,serif" font-size="10.00">Joris</text>
</g>
<!-- 1&#45;&#45;2 -->
<g id="edge3" class="edge">
<title>1&#45;&#45;2</title>
<path fill="none" stroke="black" d="M180.58,-143.88C163.84,-133.03 142.28,-119.05 125.52,-108.19"/>
</g>
<!-- 5 -->
<g id="node6" class="node">
<title>5</title>
<polygon fill="#e0e0e0" stroke="transparent" points="234,-108 180,-108 180,-72 234,-72 234,-108"/>
<text text-anchor="middle" x="207" y="-87.5" font-family="Times,serif" font-size="10.00">Kamel</text>
</g>
<!-- 1&#45;&#45;5 -->
<g id="edge6" class="edge">
<title>1&#45;&#45;5</title>
<path fill="none" stroke="black" d="M207,-143.7C207,-132.85 207,-118.92 207,-108.1"/>
</g>
<!-- 3 -->
<g id="node4" class="node">
<title>3</title>
<text text-anchor="middle" x="27" y="-15.5" font-family="Times,serif" font-size="10.00">ø</text>
</g>
<!-- 2&#45;&#45;3 -->
<g id="edge1" class="edge">
<title>2&#45;&#45;3</title>
<path fill="none" stroke="black" d="M81.2,-71.7C70.04,-60.85 55.71,-46.92 44.59,-36.1"/>
</g>
<!-- 4 -->
<g id="node5" class="node">
<title>4</title>
<text text-anchor="middle" x="99" y="-15.5" font-family="Times,serif" font-size="10.00">ø</text>
</g>
<!-- 2&#45;&#45;4 -->
<g id="edge2" class="edge">
<title>2&#45;&#45;4</title>
<path fill="none" stroke="black" d="M99,-71.7C99,-60.85 99,-46.92 99,-36.1"/>
</g>
<!-- 6 -->
<g id="node7" class="node">
<title>6</title>
<text text-anchor="middle" x="171" y="-15.5" font-family="Times,serif" font-size="10.00">ø</text>
</g>
<!-- 5&#45;&#45;6 -->
<g id="edge4" class="edge">
<title>5&#45;&#45;6</title>
<path fill="none" stroke="black" d="M198.1,-71.7C192.52,-60.85 185.36,-46.92 179.8,-36.1"/>
</g>
<!-- 7 -->
<g id="node8" class="node">
<title>7</title>
<text text-anchor="middle" x="243" y="-15.5" font-family="Times,serif" font-size="10.00">ø</text>
</g>
<!-- 5&#45;&#45;7 -->
<g id="edge5" class="edge">
<title>5&#45;&#45;7</title>
<path fill="none" stroke="black" d="M215.9,-71.7C221.48,-60.85 228.64,-46.92 234.2,-36.1"/>
</g>
<!-- 9 -->
<g id="node10" class="node">
<title>9</title>
<polygon fill="#e0e0e0" stroke="transparent" points="378,-108 324,-108 324,-72 378,-72 378,-108"/>
<text text-anchor="middle" x="351" y="-87.5" font-family="Times,serif" font-size="10.00">Carine</text>
</g>
<!-- 8&#45;&#45;9 -->
<g id="edge10" class="edge">
<title>8&#45;&#45;9</title>
<path fill="none" stroke="black" d="M351,-143.7C351,-132.85 351,-118.92 351,-108.1"/>
</g>
<!-- 12 -->
<g id="node13" class="node">
<title>12</title>
<polygon fill="#e0e0e0" stroke="transparent" points="486,-108 432,-108 432,-72 486,-72 486,-108"/>
<text text-anchor="middle" x="459" y="-87.5" font-family="Times,serif" font-size="10.00">Abdou</text>
</g>
<!-- 8&#45;&#45;12 -->
<g id="edge13" class="edge">
<title>8&#45;&#45;12</title>
<path fill="none" stroke="black" d="M377.42,-143.88C394.16,-133.03 415.72,-119.05 432.48,-108.19"/>
</g>
<!-- 10 -->
<g id="node11" class="node">
<title>10</title>
<text text-anchor="middle" x="315" y="-15.5" font-family="Times,serif" font-size="10.00">ø</text>
</g>
<!-- 9&#45;&#45;10 -->
<g id="edge8" class="edge">
<title>9&#45;&#45;10</title>
<path fill="none" stroke="black" d="M342.1,-71.7C336.52,-60.85 329.36,-46.92 323.8,-36.1"/>
</g>
<!-- 11 -->
<g id="node12" class="node">
<title>11</title>
<text text-anchor="middle" x="387" y="-15.5" font-family="Times,serif" font-size="10.00">ø</text>
</g>
<!-- 9&#45;&#45;11 -->
<g id="edge9" class="edge">
<title>9&#45;&#45;11</title>
<path fill="none" stroke="black" d="M359.9,-71.7C365.48,-60.85 372.64,-46.92 378.2,-36.1"/>
</g>
<!-- 13 -->
<g id="node14" class="node">
<title>13</title>
<text text-anchor="middle" x="459" y="-15.5" font-family="Times,serif" font-size="10.00">ø</text>
</g>
<!-- 12&#45;&#45;13 -->
<g id="edge11" class="edge">
<title>12&#45;&#45;13</title>
<path fill="none" stroke="black" d="M459,-71.7C459,-60.85 459,-46.92 459,-36.1"/>
</g>
<!-- 14 -->
<g id="node15" class="node">
<title>14</title>
<text text-anchor="middle" x="531" y="-15.5" font-family="Times,serif" font-size="10.00">ø</text>
</g>
<!-- 12&#45;&#45;14 -->
<g id="edge12" class="edge">
<title>12&#45;&#45;14</title>
<path fill="none" stroke="black" d="M476.8,-71.7C487.96,-60.85 502.29,-46.92 513.41,-36.1"/>
</g>
</g>
</svg>
