<?xml version="1.0" encoding="UTF-8" standalone="no"?>
<!DOCTYPE svg PUBLIC "-//W3C//DTD SVG 1.1//EN"
 "http://www.w3.org/Graphics/SVG/1.1/DTD/svg11.dtd">
<!-- Generated by graphviz version 2.47.0 (20210316.0004)
 -->
<!-- Pages: 1 -->
<svg width="174pt" height="174pt"
 viewBox="0.00 0.00 174.00 174.00" xmlns="http://www.w3.org/2000/svg" xmlns:xlink="http://www.w3.org/1999/xlink">
<g id="graph0" class="graph" transform="scale(1 1) rotate(0) translate(4 170)">
<polygon fill="white" stroke="transparent" points="-4,4 -4,-170 170,-170 170,4 -4,4"/>
<!-- 0 -->
<g id="node1" class="node">
<title>0</title>
<ellipse fill="#ff8247" stroke="black" cx="11" cy="-11" rx="11" ry="11"/>
<text text-anchor="middle" x="11" y="-7.3" font-family="Times New Roman,serif" font-size="14.00">S</text>
</g>
<!-- 1 -->
<g id="node2" class="node">
<title>1</title>
<ellipse fill="#eeeee0" stroke="black" cx="47" cy="-11" rx="11" ry="11"/>
<text text-anchor="middle" x="47" y="-7.3" font-family="Times New Roman,serif" font-size="14.00">A</text>
</g>
<!-- 0&#45;&gt;1 -->
<g id="edge15" class="edge">
<title>0&#45;&gt;1</title>
<path fill="none" stroke="black" d="M22.39,-11C24.93,-11 27.68,-11 30.39,-11"/>
<polygon fill="black" stroke="black" points="30.81,-12.75 35.81,-11 30.81,-9.25 30.81,-12.75"/>
</g>
<!-- 2 -->
<g id="node3" class="node">
<title>2</title>
<ellipse fill="lemonchiffon" stroke="black" cx="83" cy="-11" rx="11" ry="11"/>
<text text-anchor="middle" x="83" y="-7.3" font-family="Times New Roman,serif" font-size="14.00">I</text>
</g>
<!-- 1&#45;&gt;2 -->
<g id="edge16" class="edge">
<title>1&#45;&gt;2</title>
<path fill="none" stroke="black" d="M58.39,-11C60.93,-11 63.68,-11 66.39,-11"/>
<polygon fill="black" stroke="black" points="66.81,-12.75 71.81,-11 66.81,-9.25 66.81,-12.75"/>
</g>
<!-- 7 -->
<g id="node8" class="node">
<title>7</title>
<ellipse fill="#ffb5c5" stroke="black" cx="83" cy="-47" rx="11" ry="11"/>
<text text-anchor="middle" x="83" y="-43.3" font-family="Times New Roman,serif" font-size="14.00">R</text>
</g>
<!-- 2&#45;&gt;7 -->
<g id="edge17" class="edge">
<title>2&#45;&gt;7</title>
<path fill="none" stroke="black" d="M83,-22.39C83,-24.93 83,-27.68 83,-30.39"/>
<polygon fill="black" stroke="black" points="81.25,-30.81 83,-35.81 84.75,-30.81 81.25,-30.81"/>
</g>
<!-- 3 -->
<g id="node4" class="node">
<title>3</title>
<ellipse fill="#eeeee0" stroke="black" cx="119" cy="-11" rx="11" ry="11"/>
<text text-anchor="middle" x="119" y="-7.3" font-family="Times New Roman,serif" font-size="14.00">🌸</text>
</g>
<!-- 4 -->
<g id="node5" class="node">
<title>4</title>
<ellipse fill="lightgreen" stroke="black" cx="155" cy="-11" rx="11" ry="11"/>
<text text-anchor="middle" x="155" y="-7.3" font-family="Times New Roman,serif" font-size="14.00">🌼</text>
</g>
<!-- 3&#45;&gt;4 -->
<g id="edge20" class="edge">
<title>3&#45;&gt;4</title>
<path fill="none" stroke="black" d="M130.39,-11C132.93,-11 135.68,-11 138.39,-11"/>
<polygon fill="black" stroke="black" points="138.81,-12.75 143.81,-11 138.81,-9.25 138.81,-12.75"/>
</g>
<!-- 9 -->
<g id="node10" class="node">
<title>9</title>
<ellipse fill="#eeeee0" stroke="black" cx="155" cy="-47" rx="11" ry="11"/>
<text text-anchor="middle" x="155" y="-43.3" font-family="Times New Roman,serif" font-size="14.00">🌼</text>
</g>
<!-- 4&#45;&gt;9 -->
<g id="edge21" class="edge">
<title>4&#45;&gt;9</title>
<path fill="none" stroke="black" d="M155,-22.39C155,-24.93 155,-27.68 155,-30.39"/>
<polygon fill="black" stroke="black" points="153.25,-30.81 155,-35.81 156.75,-30.81 153.25,-30.81"/>
</g>
<!-- 5 -->
<g id="node6" class="node">
<title>5</title>
<ellipse fill="#ffb5c5" stroke="black" cx="11" cy="-47" rx="11" ry="11"/>
<text text-anchor="middle" x="11" y="-43.3" font-family="Times New Roman,serif" font-size="14.00">R</text>
</g>
<!-- 5&#45;&gt;0 -->
<g id="edge14" class="edge">
<title>5&#45;&gt;0</title>
<path fill="none" stroke="black" d="M11,-35.61C11,-33.07 11,-30.32 11,-27.61"/>
<polygon fill="black" stroke="black" points="12.75,-27.19 11,-22.19 9.25,-27.19 12.75,-27.19"/>
</g>
<!-- 6 -->
<g id="node7" class="node">
<title>6</title>
<ellipse fill="#ffb5c5" stroke="black" cx="47" cy="-47" rx="11" ry="11"/>
<text text-anchor="middle" x="47" y="-43.3" font-family="Times New Roman,serif" font-size="14.00">E</text>
</g>
<!-- 6&#45;&gt;5 -->
<g id="edge13" class="edge">
<title>6&#45;&gt;5</title>
<path fill="none" stroke="black" d="M35.61,-47C33.07,-47 30.32,-47 27.61,-47"/>
<polygon fill="black" stroke="black" points="27.19,-45.25 22.19,-47 27.19,-48.75 27.19,-45.25"/>
</g>
<!-- 8 -->
<g id="node9" class="node">
<title>8</title>
<ellipse fill="lightblue" stroke="black" cx="119" cy="-47" rx="11" ry="11"/>
<text text-anchor="middle" x="119" y="-43.3" font-family="Times New Roman,serif" font-size="14.00">E</text>
</g>
<!-- 7&#45;&gt;8 -->
<g id="edge18" class="edge">
<title>7&#45;&gt;8</title>
<path fill="none" stroke="black" d="M94.39,-47C96.93,-47 99.68,-47 102.39,-47"/>
<polygon fill="black" stroke="black" points="102.81,-48.75 107.81,-47 102.81,-45.25 102.81,-48.75"/>
</g>
<!-- 8&#45;&gt;3 -->
<g id="edge19" class="edge">
<title>8&#45;&gt;3</title>
<path fill="none" stroke="black" d="M119,-35.61C119,-33.07 119,-30.32 119,-27.61"/>
<polygon fill="black" stroke="black" points="120.75,-27.19 119,-22.19 117.25,-27.19 120.75,-27.19"/>
</g>
<!-- 14 -->
<g id="node15" class="node">
<title>14</title>
<ellipse fill="#ff8247" stroke="black" cx="155" cy="-83" rx="11" ry="11"/>
<text text-anchor="middle" x="155" y="-79.3" font-family="Times New Roman,serif" font-size="14.00">🌷</text>
</g>
<!-- 9&#45;&gt;14 -->
<g id="edge22" class="edge">
<title>9&#45;&gt;14</title>
<path fill="none" stroke="black" d="M155,-58.39C155,-60.93 155,-63.68 155,-66.39"/>
<polygon fill="black" stroke="black" points="153.25,-66.81 155,-71.81 156.75,-66.81 153.25,-66.81"/>
</g>
<!-- 10 -->
<g id="node11" class="node">
<title>10</title>
<ellipse fill="lemonchiffon" stroke="black" cx="11" cy="-83" rx="11" ry="11"/>
<text text-anchor="middle" x="11" y="-79.3" font-family="Times New Roman,serif" font-size="14.00">I</text>
</g>
<!-- 11 -->
<g id="node12" class="node">
<title>11</title>
<ellipse fill="lightblue" stroke="black" cx="47" cy="-83" rx="11" ry="11"/>
<text text-anchor="middle" x="47" y="-79.3" font-family="Times New Roman,serif" font-size="14.00">V</text>
</g>
<!-- 10&#45;&gt;11 -->
<g id="edge11" class="edge">
<title>10&#45;&gt;11</title>
<path fill="none" stroke="black" d="M22.39,-83C24.93,-83 27.68,-83 30.39,-83"/>
<polygon fill="black" stroke="black" points="30.81,-84.75 35.81,-83 30.81,-81.25 30.81,-84.75"/>
</g>
<!-- 11&#45;&gt;6 -->
<g id="edge12" class="edge">
<title>11&#45;&gt;6</title>
<path fill="none" stroke="black" d="M47,-71.61C47,-69.07 47,-66.32 47,-63.61"/>
<polygon fill="black" stroke="black" points="48.75,-63.19 47,-58.19 45.25,-63.19 48.75,-63.19"/>
</g>
<!-- 12 -->
<g id="node13" class="node">
<title>12</title>
<ellipse fill="lemonchiffon" stroke="black" cx="83" cy="-83" rx="11" ry="11"/>
<text text-anchor="middle" x="83" y="-79.3" font-family="Times New Roman,serif" font-size="14.00">J</text>
</g>
<!-- 13 -->
<g id="node14" class="node">
<title>13</title>
<ellipse fill="#eeeee0" stroke="black" cx="119" cy="-83" rx="11" ry="11"/>
<text text-anchor="middle" x="119" y="-79.3" font-family="Times New Roman,serif" font-size="14.00">O</text>
</g>
<!-- 12&#45;&gt;13 -->
<g id="edge1" class="edge">
<title>12&#45;&gt;13</title>
<path fill="none" stroke="black" d="M94.39,-83C96.93,-83 99.68,-83 102.39,-83"/>
<polygon fill="black" stroke="black" points="102.81,-84.75 107.81,-83 102.81,-81.25 102.81,-84.75"/>
</g>
<!-- 18 -->
<g id="node19" class="node">
<title>18</title>
<ellipse fill="lightblue" stroke="black" cx="119" cy="-119" rx="11" ry="11"/>
<text text-anchor="middle" x="119" y="-115.3" font-family="Times New Roman,serif" font-size="14.00">Y</text>
</g>
<!-- 13&#45;&gt;18 -->
<g id="edge2" class="edge">
<title>13&#45;&gt;18</title>
<path fill="none" stroke="black" d="M119,-94.39C119,-96.93 119,-99.68 119,-102.39"/>
<polygon fill="black" stroke="black" points="117.25,-102.81 119,-107.81 120.75,-102.81 117.25,-102.81"/>
</g>
<!-- 19 -->
<g id="node20" class="node">
<title>19</title>
<ellipse fill="#ff8247" stroke="black" cx="155" cy="-119" rx="11" ry="11"/>
<text text-anchor="middle" x="155" y="-115.3" font-family="Times New Roman,serif" font-size="14.00">💮</text>
</g>
<!-- 14&#45;&gt;19 -->
<g id="edge23" class="edge">
<title>14&#45;&gt;19</title>
<path fill="none" stroke="black" d="M155,-94.39C155,-96.93 155,-99.68 155,-102.39"/>
<polygon fill="black" stroke="black" points="153.25,-102.81 155,-107.81 156.75,-102.81 153.25,-102.81"/>
</g>
<!-- 15 -->
<g id="node16" class="node">
<title>15</title>
<ellipse fill="lemonchiffon" stroke="black" cx="11" cy="-119" rx="11" ry="11"/>
<text text-anchor="middle" x="11" y="-115.3" font-family="Times New Roman,serif" font-size="14.00">N</text>
</g>
<!-- 15&#45;&gt;10 -->
<g id="edge10" class="edge">
<title>15&#45;&gt;10</title>
<path fill="none" stroke="black" d="M11,-107.61C11,-105.07 11,-102.32 11,-99.61"/>
<polygon fill="black" stroke="black" points="12.75,-99.19 11,-94.19 9.25,-99.19 12.75,-99.19"/>
</g>
<!-- 16 -->
<g id="node17" class="node">
<title>16</title>
<ellipse fill="#ffb5c5" stroke="black" cx="47" cy="-119" rx="11" ry="11"/>
<text text-anchor="middle" x="47" y="-115.3" font-family="Times New Roman,serif" font-size="14.00">🌸</text>
</g>
<!-- 21 -->
<g id="node22" class="node">
<title>21</title>
<ellipse fill="lightblue" stroke="black" cx="47" cy="-155" rx="11" ry="11"/>
<text text-anchor="middle" x="47" y="-151.3" font-family="Times New Roman,serif" font-size="14.00">A</text>
</g>
<!-- 16&#45;&gt;21 -->
<g id="edge7" class="edge">
<title>16&#45;&gt;21</title>
<path fill="none" stroke="black" d="M47,-130.39C47,-132.93 47,-135.68 47,-138.39"/>
<polygon fill="black" stroke="black" points="45.25,-138.81 47,-143.81 48.75,-138.81 45.25,-138.81"/>
</g>
<!-- 17 -->
<g id="node18" class="node">
<title>17</title>
<ellipse fill="#ff8247" stroke="black" cx="83" cy="-119" rx="11" ry="11"/>
<text text-anchor="middle" x="83" y="-115.3" font-family="Times New Roman,serif" font-size="14.00">X</text>
</g>
<!-- 17&#45;&gt;16 -->
<g id="edge6" class="edge">
<title>17&#45;&gt;16</title>
<path fill="none" stroke="black" d="M71.61,-119C69.07,-119 66.32,-119 63.61,-119"/>
<polygon fill="black" stroke="black" points="63.19,-117.25 58.19,-119 63.19,-120.75 63.19,-117.25"/>
</g>
<!-- 23 -->
<g id="node24" class="node">
<title>23</title>
<ellipse fill="lightblue" stroke="black" cx="119" cy="-155" rx="11" ry="11"/>
<text text-anchor="middle" x="119" y="-151.3" font-family="Times New Roman,serif" font-size="14.00">E</text>
</g>
<!-- 18&#45;&gt;23 -->
<g id="edge3" class="edge">
<title>18&#45;&gt;23</title>
<path fill="none" stroke="black" d="M119,-130.39C119,-132.93 119,-135.68 119,-138.39"/>
<polygon fill="black" stroke="black" points="117.25,-138.81 119,-143.81 120.75,-138.81 117.25,-138.81"/>
</g>
<!-- 24 -->
<g id="node25" class="node">
<title>24</title>
<ellipse fill="lightgreen" stroke="black" cx="155" cy="-155" rx="11" ry="11"/>
<text text-anchor="middle" x="155" y="-151.3" font-family="Times New Roman,serif" font-size="14.00">🌼</text>
</g>
<!-- 19&#45;&gt;24 -->
<g id="edge24" class="edge">
<title>19&#45;&gt;24</title>
<path fill="none" stroke="black" d="M155,-130.39C155,-132.93 155,-135.68 155,-138.39"/>
<polygon fill="black" stroke="black" points="153.25,-138.81 155,-143.81 156.75,-138.81 153.25,-138.81"/>
</g>
<!-- 20 -->
<g id="node21" class="node">
<title>20</title>
<ellipse fill="#eeeee0" stroke="black" cx="11" cy="-155" rx="11" ry="11"/>
<text text-anchor="middle" x="11" y="-151.3" font-family="Times New Roman,serif" font-size="14.00">N</text>
</g>
<!-- 20&#45;&gt;15 -->
<g id="edge9" class="edge">
<title>20&#45;&gt;15</title>
<path fill="none" stroke="black" d="M11,-143.61C11,-141.07 11,-138.32 11,-135.61"/>
<polygon fill="black" stroke="black" points="12.75,-135.19 11,-130.19 9.25,-135.19 12.75,-135.19"/>
</g>
<!-- 21&#45;&gt;20 -->
<g id="edge8" class="edge">
<title>21&#45;&gt;20</title>
<path fill="none" stroke="black" d="M35.61,-155C33.07,-155 30.32,-155 27.61,-155"/>
<polygon fill="black" stroke="black" points="27.19,-153.25 22.19,-155 27.19,-156.75 27.19,-153.25"/>
</g>
<!-- 22 -->
<g id="node23" class="node">
<title>22</title>
<ellipse fill="lightgreen" stroke="black" cx="83" cy="-155" rx="11" ry="11"/>
<text text-anchor="middle" x="83" y="-151.3" font-family="Times New Roman,serif" font-size="14.00">U</text>
</g>
<!-- 22&#45;&gt;17 -->
<g id="edge5" class="edge">
<title>22&#45;&gt;17</title>
<path fill="none" stroke="black" d="M83,-143.61C83,-141.07 83,-138.32 83,-135.61"/>
<polygon fill="black" stroke="black" points="84.75,-135.19 83,-130.19 81.25,-135.19 84.75,-135.19"/>
</g>
<!-- 23&#45;&gt;22 -->
<g id="edge4" class="edge">
<title>23&#45;&gt;22</title>
<path fill="none" stroke="black" d="M107.61,-155C105.07,-155 102.32,-155 99.61,-155"/>
<polygon fill="black" stroke="black" points="99.19,-153.25 94.19,-155 99.19,-156.75 99.19,-153.25"/>
</g>
</g>
</svg>
