<?xml version="1.0" encoding="UTF-8" standalone="no"?>
<!DOCTYPE svg PUBLIC "-//W3C//DTD SVG 1.1//EN"
 "http://www.w3.org/Graphics/SVG/1.1/DTD/svg11.dtd">
<!-- Generated by graphviz version 2.50.0 (20211204.2007)
 -->
<!-- Pages: 1 -->
<svg width="52pt" height="73pt"
 viewBox="0.00 0.00 51.60 73.20" xmlns="http://www.w3.org/2000/svg" xmlns:xlink="http://www.w3.org/1999/xlink">
<g id="graph0" class="graph" transform="scale(1 1) rotate(0) translate(4 69.2)">
<polygon fill="white" stroke="transparent" points="-4,4 -4,-69.2 47.6,-69.2 47.6,4 -4,4"/>
<!-- 0 -->
<g id="node1" class="node">
<title>0</title>
<ellipse fill="white" stroke="black" cx="32.6" cy="-54.2" rx="11" ry="11"/>
<text text-anchor="middle" x="32.6" y="-51.1" font-family="Times,serif" font-size="12.00">A</text>
</g>
<!-- 1 -->
<g id="node2" class="node">
<title>1</title>
<ellipse fill="white" stroke="black" cx="11" cy="-11" rx="11" ry="11"/>
<text text-anchor="middle" x="11" y="-7.9" font-family="Times,serif" font-size="12.00">B</text>
</g>
<!-- 0&#45;&#45;1 -->
<g id="edge1" class="edge">
<title>0&#45;&#45;1</title>
<path fill="none" stroke="black" d="M27.59,-44.18C24.1,-37.2 19.47,-27.93 15.98,-20.97"/>
</g>
</g>
</svg>
