4604
Round 001 : Red 86 - Blue 14 - Nulle 0
Round 002 : Red 85 - Blue 15 - Nulle 0
Round 003 : Red 76 - Blue 24 - Nulle 0
Round 004 : Red 77 - Blue 23 - Nulle 0
Round 005 : Red 81 - Blue 19 - Nulle 0
Round 006 : Red 82 - Blue 18 - Nulle 0
Round 007 : Red 76 - Blue 24 - Nulle 0
Round 008 : Red 76 - Blue 24 - Nulle 0
Round 009 : Red 78 - Blue 22 - Nulle 0
Round 010 : Red 77 - Blue 23 - Nulle 0
Round 011 : Red 78 - Blue 22 - Nulle 0
Round 012 : Red 81 - Blue 19 - Nulle 0
Round 013 : Red 81 - Blue 19 - Nulle 0
Round 014 : Red 71 - Blue 29 - Nulle 0
Round 015 : Red 80 - Blue 20 - Nulle 0
Round 016 : Red 77 - Blue 23 - Nulle 0
Round 017 : Red 78 - Blue 22 - Nulle 0
Round 018 : Red 76 - Blue 24 - Nulle 0
Round 019 : Red 78 - Blue 22 - Nulle 0
Round 020 : Red 70 - Blue 30 - Nulle 0
Round 021 : Red 72 - Blue 28 - Nulle 0
Round 022 : Red 83 - Blue 17 - Nulle 0
Round 023 : Red 81 - Blue 19 - Nulle 0
Round 024 : Red 75 - Blue 25 - Nulle 0
Round 025 : Red 78 - Blue 22 - Nulle 0
Round 026 : Red 77 - Blue 23 - Nulle 0
Round 027 : Red 79 - Blue 21 - Nulle 0
Round 028 : Red 76 - Blue 24 - Nulle 0
Round 029 : Red 73 - Blue 27 - Nulle 0
Round 030 : Red 79 - Blue 21 - Nulle 0
Round 031 : Red 78 - Blue 22 - Nulle 0
Round 032 : Red 70 - Blue 30 - Nulle 0
Round 033 : Red 82 - Blue 18 - Nulle 0
Round 034 : Red 75 - Blue 25 - Nulle 0
Round 035 : Red 76 - Blue 24 - Nulle 0
Round 036 : Red 77 - Blue 23 - Nulle 0
Round 037 : Red 70 - Blue 30 - Nulle 0
Round 038 : Red 74 - Blue 26 - Nulle 0
Round 039 : Red 78 - Blue 22 - Nulle 0
Round 040 : Red 81 - Blue 19 - Nulle 0
Round 041 : Red 72 - Blue 28 - Nulle 0
Round 042 : Red 78 - Blue 22 - Nulle 0
Round 043 : Red 78 - Blue 22 - Nulle 0
Round 044 : Red 85 - Blue 15 - Nulle 0
Round 045 : Red 79 - Blue 21 - Nulle 0
Round 046 : Red 75 - Blue 25 - Nulle 0
Round 047 : Red 86 - Blue 14 - Nulle 0
Round 048 : Red 79 - Blue 21 - Nulle 0
Round 049 : Red 80 - Blue 20 - Nulle 0
Round 050 : Red 80 - Blue 20 - Nulle 0
Round 051 : Red 76 - Blue 24 - Nulle 0
Round 052 : Red 77 - Blue 23 - Nulle 0
Round 053 : Red 83 - Blue 17 - Nulle 0
Round 054 : Red 78 - Blue 22 - Nulle 0
Round 055 : Red 78 - Blue 22 - Nulle 0
Round 056 : Red 78 - Blue 22 - Nulle 0
Round 057 : Red 74 - Blue 26 - Nulle 0
Round 058 : Red 73 - Blue 27 - Nulle 0
Round 059 : Red 81 - Blue 19 - Nulle 0
Round 060 : Red 72 - Blue 28 - Nulle 0
Round 061 : Red 80 - Blue 20 - Nulle 0
Round 062 : Red 72 - Blue 28 - Nulle 0
Round 063 : Red 74 - Blue 26 - Nulle 0
Round 064 : Red 77 - Blue 23 - Nulle 0
Round 065 : Red 79 - Blue 21 - Nulle 0
Round 066 : Red 79 - Blue 21 - Nulle 0
Round 067 : Red 79 - Blue 21 - Nulle 0
Round 068 : Red 81 - Blue 19 - Nulle 0
Round 069 : Red 75 - Blue 25 - Nulle 0
Round 070 : Red 75 - Blue 25 - Nulle 0
Round 071 : Red 71 - Blue 29 - Nulle 0
Round 072 : Red 73 - Blue 27 - Nulle 0
Round 073 : Red 73 - Blue 27 - Nulle 0
Round 074 : Red 74 - Blue 26 - Nulle 0
Round 075 : Red 78 - Blue 22 - Nulle 0
Round 076 : Red 74 - Blue 26 - Nulle 0
Round 077 : Red 75 - Blue 25 - Nulle 0
Round 078 : Red 69 - Blue 31 - Nulle 0
Round 079 : Red 75 - Blue 25 - Nulle 0
Round 080 : Red 82 - Blue 18 - Nulle 0
Round 081 : Red 75 - Blue 25 - Nulle 0
Round 082 : Red 76 - Blue 24 - Nulle 0
Round 083 : Red 77 - Blue 23 - Nulle 0
Round 084 : Red 83 - Blue 17 - Nulle 0
Round 085 : Red 75 - Blue 25 - Nulle 0
Round 086 : Red 74 - Blue 26 - Nulle 0
Round 087 : Red 78 - Blue 22 - Nulle 0
Round 088 : Red 76 - Blue 24 - Nulle 0
Round 089 : Red 70 - Blue 30 - Nulle 0
Round 090 : Red 74 - Blue 26 - Nulle 0
Round 091 : Red 79 - Blue 21 - Nulle 0
Round 092 : Red 77 - Blue 23 - Nulle 0
Round 093 : Red 84 - Blue 16 - Nulle 0
Round 094 : Red 62 - Blue 38 - Nulle 0
Round 095 : Red 77 - Blue 23 - Nulle 0
Round 096 : Red 79 - Blue 21 - Nulle 0
Round 097 : Red 82 - Blue 18 - Nulle 0
Round 098 : Red 69 - Blue 31 - Nulle 0
Round 099 : Red 73 - Blue 27 - Nulle 0
Round 100 : Red 79 - Blue 21 - Nulle 0
Round 101 : Red 75 - Blue 25 - Nulle 0
Round 102 : Red 76 - Blue 24 - Nulle 0
Round 103 : Red 72 - Blue 28 - Nulle 0
Round 104 : Red 76 - Blue 24 - Nulle 0
Round 105 : Red 74 - Blue 26 - Nulle 0
Round 106 : Red 78 - Blue 22 - Nulle 0
Round 107 : Red 74 - Blue 26 - Nulle 0
Round 108 : Red 78 - Blue 22 - Nulle 0
Round 109 : Red 77 - Blue 23 - Nulle 0
Round 110 : Red 74 - Blue 26 - Nulle 0
Round 111 : Red 80 - Blue 20 - Nulle 0
Round 112 : Red 78 - Blue 22 - Nulle 0
Round 113 : Red 77 - Blue 23 - Nulle 0
Round 114 : Red 86 - Blue 14 - Nulle 0
Round 115 : Red 73 - Blue 27 - Nulle 0
Round 116 : Red 71 - Blue 29 - Nulle 0
Round 117 : Red 66 - Blue 34 - Nulle 0
Round 118 : Red 78 - Blue 22 - Nulle 0
Round 119 : Red 81 - Blue 19 - Nulle 0
Round 120 : Red 73 - Blue 27 - Nulle 0
Round 121 : Red 76 - Blue 24 - Nulle 0
Round 122 : Red 73 - Blue 27 - Nulle 0
Round 123 : Red 78 - Blue 22 - Nulle 0
Round 124 : Red 74 - Blue 26 - Nulle 0
Round 125 : Red 75 - Blue 25 - Nulle 0
Round 126 : Red 76 - Blue 24 - Nulle 0
Round 127 : Red 74 - Blue 26 - Nulle 0
Round 128 : Red 84 - Blue 16 - Nulle 0
Round 129 : Red 77 - Blue 23 - Nulle 0
Round 130 : Red 72 - Blue 28 - Nulle 0
Round 131 : Red 79 - Blue 21 - Nulle 0
Round 132 : Red 80 - Blue 20 - Nulle 0
Round 133 : Red 71 - Blue 29 - Nulle 0
Round 134 : Red 77 - Blue 23 - Nulle 0
Round 135 : Red 78 - Blue 22 - Nulle 0
Round 136 : Red 76 - Blue 24 - Nulle 0
Round 137 : Red 81 - Blue 19 - Nulle 0
Round 138 : Red 73 - Blue 27 - Nulle 0
Round 139 : Red 78 - Blue 22 - Nulle 0
Round 140 : Red 68 - Blue 32 - Nulle 0
Round 141 : Red 76 - Blue 24 - Nulle 0
Round 142 : Red 79 - Blue 21 - Nulle 0
Round 143 : Red 78 - Blue 22 - Nulle 0
Round 144 : Red 82 - Blue 18 - Nulle 0
Round 145 : Red 65 - Blue 35 - Nulle 0
Round 146 : Red 73 - Blue 27 - Nulle 0
Round 147 : Red 74 - Blue 26 - Nulle 0
Round 148 : Red 80 - Blue 20 - Nulle 0
Round 149 : Red 76 - Blue 24 - Nulle 0
Round 150 : Red 72 - Blue 28 - Nulle 0
Round 151 : Red 74 - Blue 26 - Nulle 0
Round 152 : Red 81 - Blue 19 - Nulle 0
Round 153 : Red 76 - Blue 24 - Nulle 0
Round 154 : Red 83 - Blue 17 - Nulle 0
Round 155 : Red 79 - Blue 21 - Nulle 0
Round 156 : Red 79 - Blue 21 - Nulle 0
Round 157 : Red 77 - Blue 23 - Nulle 0
Round 158 : Red 78 - Blue 22 - Nulle 0
Round 159 : Red 80 - Blue 20 - Nulle 0
Round 160 : Red 75 - Blue 25 - Nulle 0
Round 161 : Red 72 - Blue 28 - Nulle 0
Round 162 : Red 83 - Blue 17 - Nulle 0
Round 163 : Red 73 - Blue 27 - Nulle 0
Round 164 : Red 71 - Blue 29 - Nulle 0
Round 165 : Red 76 - Blue 24 - Nulle 0
Round 166 : Red 75 - Blue 25 - Nulle 0
Round 167 : Red 77 - Blue 23 - Nulle 0
Round 168 : Red 79 - Blue 21 - Nulle 0
Round 169 : Red 75 - Blue 25 - Nulle 0
Round 170 : Red 72 - Blue 28 - Nulle 0
Round 171 : Red 75 - Blue 25 - Nulle 0
Round 172 : Red 81 - Blue 19 - Nulle 0
Round 173 : Red 77 - Blue 23 - Nulle 0
Round 174 : Red 75 - Blue 25 - Nulle 0
Round 175 : Red 73 - Blue 27 - Nulle 0
Round 176 : Red 76 - Blue 24 - Nulle 0
Round 177 : Red 77 - Blue 23 - Nulle 0
Round 178 : Red 82 - Blue 18 - Nulle 0
Round 179 : Red 77 - Blue 23 - Nulle 0
Round 180 : Red 72 - Blue 28 - Nulle 0
Round 181 : Red 70 - Blue 30 - Nulle 0
Round 182 : Red 75 - Blue 25 - Nulle 0
Round 183 : Red 70 - Blue 30 - Nulle 0
Round 184 : Red 78 - Blue 22 - Nulle 0
Round 185 : Red 72 - Blue 28 - Nulle 0
Round 186 : Red 77 - Blue 23 - Nulle 0
Round 187 : Red 77 - Blue 23 - Nulle 0
Round 188 : Red 80 - Blue 20 - Nulle 0
Round 189 : Red 80 - Blue 20 - Nulle 0
Round 190 : Red 75 - Blue 25 - Nulle 0
Round 191 : Red 81 - Blue 19 - Nulle 0
Round 192 : Red 79 - Blue 21 - Nulle 0
Round 193 : Red 78 - Blue 22 - Nulle 0
Round 194 : Red 82 - Blue 18 - Nulle 0
Round 195 : Red 78 - Blue 22 - Nulle 0
Round 196 : Red 74 - Blue 26 - Nulle 0
Round 197 : Red 76 - Blue 24 - Nulle 0
Round 198 : Red 68 - Blue 32 - Nulle 0
Round 199 : Red 79 - Blue 21 - Nulle 0
Round 200 : Red 77 - Blue 23 - Nulle 0
