10,11,12,0,1,2,0
6,10,12,0,1,2,1
6,10,12,0,1,7,0
5,6,12,0,1,7,1
5,6,12,0,2,7,0
1,5,12,0,2,7,1
1,5,12,0,4,7,0
1,6,12,0,4,7,1
1,6,12,4,5,7,0
0,6,12,4,5,7,1
0,6,12,2,4,5,0
0,6,7,2,4,5,1
0,6,7,2,4,10,0
1,6,7,2,4,10,1
1,6,7,2,4,11,0
1,6,12,2,4,11,1
1,6,12,4,7,11,0
2,6,12,4,7,11,1
2,6,12,4,7,10,0
2,6,11,4,7,10,1
2,6,11,4,10,12,0
6,7,11,4,10,12,1
6,7,11,2,10,12,0
7,9,11,2,10,12,1
7,9,11,2,5,12,0
6,9,11,2,5,12,1
6,9,11,2,5,7,0
6,9,12,2,5,7,1
6,9,12,4,5,7,0
6,9,11,4,5,7,1
6,9,11,2,4,5,0
6,9,10,2,4,5,1
6,9,10,1,4,5,0
6,10,12,1,4,5,1
6,10,12,2,4,5,0
6,7,10,2,4,5,1
6,7,10,0,2,4,0
5,6,7,0,2,4,1
5,6,7,1,2,4,0
0,6,7,1,2,4,1
